{
	"label": "Домены",
	"mapping": {
        "name": {"path": "name", "converter": "itemNameConverter"}
	},
	"entries": {
		"Abomination Domain": {
			"name": "Мерзость",
			"description": "<p><strong>Божества:</strong> <em>@UUID[Compendium.pf2e.deities.8Oy4qHylOOp79JxD]{Нимбалот}</em></p>\n<p><strong>Доменное заклинание:</strong> <em>@UUID[Compendium.pf2e.spells-srd.6GjJtLJnwC18Y0aZ]{Приподнять природную оболочку}</em><u></u>; <strong>Продвинутое доменное заклинание:</strong> <em>@UUID[Compendium.pf2e.spells-srd.0qA4MfMkFklOz2Lk]{Вселяющий страх пир}</em></p>\n<p>Вы стремитесь внушать окружающим отвращение и ужас.</p>"
		},
		"Air Domain": {
			"name": "Воздух",
			"description": "<p><strong>Божества:</strong> @UUID[Compendium.pf2e.deities.oJPwMa9xG8oMnC14]{Аполлион}, @UUID[Compendium.pf2e.deities.9WD0hbUT0IbnuTiM]{Вельзевул}, @UUID[Compendium.pf2e.deities.oRvuLq3o2FxXizt9]{Глондер}, @UUID[Compendium.pf2e.deities.swwwP7eVmlNuWTb7]{Гозрей},@UUID[Compendium.pf2e.deities.DEKKbg6riAdL2ARf]{Хэй Фэн},@UUID[Compendium.pf2e.deities.rRuxBgC58PxrLzRv]{Гор},@UUID[Compendium.pf2e.deities.A37XqON6QRPzQhp7]{Шурха},@UUID[Compendium.pf2e.deities.IZcdF1G8ZsnMotaM]{Пазузу},@UUID[Compendium.pf2e.deities.o9tK1T28LNEVzpFV]{Рагдья},@UUID[Compendium.pf2e.deities.Ij1KRM8ufkEjGnR3]{Рангинори},@UUID[Compendium.pf2e.deities.Bhxji0kxIbMKqdkw]{Ровагуг},@UUID[Compendium.pf2e.deities.97Qe42wJN5EVUS14]{Стуровенен},@UUID[Compendium.pf2e.deities.YXmeBdOZfWgUljW1]{Илиманча}, <em>@UUID[Compendium.pf2e.deities.w4fDrwL8VIqJDPfR]{Увуко}</em></p>\n<p><strong>Пантеоны:</strong> @UUID[Compendium.pf2e.deities.yIfdsL1788boOOYk]{Хранители неба}</p>\n<p><strong>Доменное заклинание:</strong><em>@UUID[Compendium.pf2e.spells-srd.myC2EIrsjmB8xosi]{Отталкивающий порыв ветра}</em>;<strong>Продвинутое доменное заклинание:</strong><em>@UUID[Compendium.pf2e.spells-srd.L8pzCOi7Jzx5ALs9]{Раствориться в воздухе}</em></p>\n<p>Вы управляете ветрами и погодой.</p>"
		},
		"Ambition Domain": {
			"name": "Амбиция",
			"description": "<p><strong>Божества:</strong> @UUID[Compendium.pf2e.deities.9WD0hbUT0IbnuTiM]{Вельзевул}, <em>@UUID[Compendium.pf2e.deities.soiVh53y9RAeSLEk]{Касандали}</em>, @UUID[Compendium.pf2e.deities.aVyxfqY9GBjTqQul]{Эйсет}, @UUID[Compendium.pf2e.deities.6O4UGWcYERDEugzk]{Фумейоши}, @UUID[Compendium.pf2e.deities.zlJGKpeLBwajP91o]{Гиронна}, @UUID[Compendium.pf2e.deities.sNjPI1iaS8Z43YJf]{Маммон}, <em>@UUID[Compendium.pf2e.deities.1nQVLOyWv5kC0bCU]{Равитра}</em>, @UUID[Compendium.pf2e.deities.zzhYFcShT9JoE2Mp]{Шакс}, @UUID[Compendium.pf2e.deities.rDTXcBJ8LyqA2TkL]{Зуриэль}, @UUID[Compendium.pf2e.deities.PFp4Sdp2TDDKD62l]{Тамир}, @UUID[Compendium.pf2e.deities.4bEPoujxhYdUyUOg]{Идерсий}, @UUID[Compendium.pf2e.deities.SCGdJmm7Wzle9jFP]{Зольс}, @UUID[Compendium.pf2e.deities.ZfN7jkK6boU1FuiS]{Зон-Кутон}, @UUID[Compendium.pf2e.deities.CnDEoo6WruQCXo1o]{Любайко}, @UUID[Compendium.pf2e.deities.IK2AL3bL6htrrnnC]{Skode}</p>\n<p><strong>Пантеоны:</strong> <em>@UUID[Compendium.pf2e.deities.KPrtgoIcgiBSKzS3]{Освобождающее пламя}</em></p>\n<p><strong>Доменное заклинание:</strong> <em>@UUID[Compendium.pf2e.spells-srd.Dj44lViYKvOJ8a53]{Слепые амбиции}</em>; <strong>Продвинутое доменное заклинание:</strong> <em>@UUID[Compendium.pf2e.spells-srd.NOB92Wpn7jXvtyVW]{Конкурентоспособность}</em></p>\n<p>Вы стремитесь не отставать от конкурентов и опережать их.</p>"
		},
		"Change Domain": {
			"name": "Изменение",
			"description": "<p><strong>Божества:</strong> @UUID[Compendium.pf2e.deities.9n2CI0B3EA4y3BuU]{Альсета}, @UUID[Compendium.pf2e.deities.remyY1BwhEVmBwya]{Белиал}, @UUID[Compendium.pf2e.deities.gXHoxuuiAD54LnWV]{Сит-Ви'заг}, @UUID[Compendium.pf2e.deities.AHX89nhuVhmg8k6w]{Дагон}, @UUID[Compendium.pf2e.deities.M3eb94Nd6uXti2IK]{Дайкицу}, <em>@UUID[Compendium.pf2e.deities.fuPTR1laXO6EionS]{Бабушка Паучиха}</em>, <em>@UUID[Compendium.pf2e.deities.qqqrbq4uCrelQvgH]{Ирори}</em>, @UUID[Compendium.pf2e.deities.5ZIvg8CkqRMepVcX]{Корада}, <em>@UUID[Compendium.pf2e.deities.aipkJQxP4GBsTaGq]{Ламашту}</em>, @UUID[Compendium.pf2e.deities.QibpLccM5bLUMopj]{Лимнерис}, @UUID[Compendium.pf2e.deities.fTJLgTfEMZreJ19r]{Милани}, @UUID[Compendium.pf2e.deities.E1dUhoSEf2XfklU2]{Мать-Стервятник}, @UUID[Compendium.pf2e.deities.hhV2g6aU8jKLEca1]{Наракаас}, @UUID[Compendium.pf2e.deities.jL1qiVOZBKXETtVD]{Ноктикула}, @UUID[Compendium.pf2e.deities.nuvfUC4TcOvFbKxx]{Осирис}, @UUID[Compendium.pf2e.deities.1xHnoMlCyCV70TnT]{Салок}, @UUID[Compendium.pf2e.deities.nuqIimigyt986WLE]{Король Фонарей}, <em>@UUID[Compendium.pf2e.deities.0R2BjVb7d9tYCIbk]{Тлехар}</em>, <em>@UUID[Compendium.pf2e.deities.aTYy1WHwAZiuei4h]{Цукио}</em>, @UUID[Compendium.pf2e.deities.mebdNVKeKuTmDDHj]{Жамен-Дор}, @UUID[Compendium.pf2e.deities.iEt6idGIEPXY2HzV]{Идаджиск}, @UUID[Compendium.pf2e.deities.w4fDrwL8VIqJDPfR]{Увуко}, <em>@UUID[Compendium.pf2e.deities.CnDEoo6WruQCXo1o]{Любайко}</em></p>\n<p><strong>Пантеоны:</strong> @UUID[Compendium.pf2e.deities.KPrtgoIcgiBSKzS3]{Освобождающее пламя}, @UUID[Compendium.pf2e.deities.yIfdsL1788boOOYk]{Хранители неба}, <em>@UUID[Compendium.pf2e.deities.LGOkWwN6AZhLiZpl]{Касание солнца}</em></p>\n<p><strong>Доменное заклинание:</strong> <em>@UUID[Compendium.pf2e.spells-srd.GUnw9YXaW3YyaCAU]{Адаптировать себя}</em>; <strong>Продвинутое доменное заклинание:</strong> <em>@UUID[Compendium.pf2e.spells-srd.GoKkejPj5yWJPIPK]{Адаптивная абляция}</em></p>\n<p>Вы можете перестроить физическое и метафизическое.</p>"
		},
		"Cities Domain": {
			"name": "Города",
			"description": "<p><strong>Божества:</strong> @UUID[Compendium.pf2e.deities.d56paSkcwvll2OhR]{Абадар}, @UUID[Compendium.pf2e.deities.v67fHklTZ6LoU54q]{Кайдэн Кайлин}, @UUID[Compendium.pf2e.deities.OlVCyRgOaPJji4qt]{Чохар}, @UUID[Compendium.pf2e.deities.CzHjFLx4hpIEIoWt]{Диспатер}, @UUID[Compendium.pf2e.deities.liXIbl7y8www2eAn]{Финделадлара}, @UUID[Compendium.pf2e.deities.VEyowuhC4FsBnG8c]{Фолгрит}, <em>@UUID[Compendium.pf2e.deities.iXvyp9rGnqvFfy4q]{Казутал}</em>, @UUID[Compendium.pf2e.deities.ub0PJ5QkrdoGzzb2]{Лухар}, @UUID[Compendium.pf2e.deities.hWTTS0e7J9hJfsp3]{Матраваш}, @UUID[Compendium.pf2e.deities.0R2BjVb7d9tYCIbk]{Тлехар}, @UUID[Compendium.pf2e.deities.SCGdJmm7Wzle9jFP]{Зольс}, @UUID[Compendium.pf2e.deities.v1fsLP6nTkiy5ghB]{Мазлюдэ}</p>\n<p><strong>Пантеоны:</strong> <em>@UUID[Compendium.pf2e.deities.y3RlZ3FnbZN8wv8j]{Демононосцы}</em></p>\n<p><strong>Доменное заклинание:</strong> <em>@UUID[Compendium.pf2e.spells-srd.yH13KXUK2x093NUv]{Лицо в толпе}</em>; <strong>Продвинутое доменное заклинание:</strong> <em>@UUID[Compendium.pf2e.spells-srd.ivKnEtI1z4UqEKIA]{Ритм города}</em></p>\n<p>У вас есть власть над городской средой и жителями.</p>"
		},
		"Cold Domain": {
			"name": "Холод",
			"description": "<p><strong>Божества:</strong> @UUID[Compendium.pf2e.deities.uXkMGx0OD896ZQlT]{Альгленвейс}, <em>@UUID[Compendium.pf2e.deities.swwwP7eVmlNuWTb7]{Гозрей}</em>, @UUID[Compendium.pf2e.deities.A37XqON6QRPzQhp7]{Шурха}, @UUID[Compendium.pf2e.deities.JcIf4uwKLxEWdplI]{Кощиччи}, @UUID[Compendium.pf2e.deities.Vzxm5FyIA40b2OSP]{Полура}, @UUID[Compendium.pf2e.deities.tb0oADxOoMhyrYRA]{Ямацуми}, <em>@UUID[Compendium.pf2e.deities.w4fDrwL8VIqJDPfR]{Увуко}</em></p>\n<p><strong>Доменное заклинание:</strong> <em>@UUID[Compendium.pf2e.spells-srd.DeNz6eAUlE0IE9U3]{Зимний снаряд}</em>; <strong>Продвинутое доменное заклинание:</strong> <em>@UUID[Compendium.pf2e.spells-srd.wjJW9hWY5CkkMvY5]{Алмазная пыль}</em></p>\n<p>Вы контролируете лед, снег и температуру замерзания.</p>"
		},
		"Confidence Domain": {
			"name": "Уверенность",
			"description": "<p><strong>Божества:</strong> @UUID[Compendium.pf2e.deities.HtRxo4J3elFteIqu]{Аразни}, @UUID[Compendium.pf2e.deities.KDFujU3Yug6AwCOz]{Аршей}, @UUID[Compendium.pf2e.deities.QRkcFciCOmFoxF1B]{Асмодей}, @UUID[Compendium.pf2e.deities.HD7g8T8ioy1EH3M8]{Болка}, @UUID[Compendium.pf2e.deities.4GO4iT585ynLJnc8]{Чалдира}, @UUID[Compendium.pf2e.deities.vSUz97Y29l1O50bC]{Граф Раналк}, @UUID[Compendium.pf2e.deities.CzHjFLx4hpIEIoWt]{Диспатер}, @UUID[Compendium.pf2e.deities.8DXel4AvpyUy6oJ0]{Эритрайс}, @UUID[Compendium.pf2e.deities.Zi1UARhode3FSFLr]{Генерал Сусуму}, @UUID[Compendium.pf2e.deities.88vRw2ZVPax4hhga]{Горум}, @UUID[Compendium.pf2e.deities.tk7gRxXsqvBwQrUF]{Грундиннар}, @UUID[Compendium.pf2e.deities.eErEiVmBqltYXFJ6]{Айомедэй}, @UUID[Compendium.pf2e.deities.bF77ydtptI54STl9]{Джайдз}, <em>@UUID[Compendium.pf2e.deities.Mv6uTJLh3VGEoGLH]{Ниви Ромбодазл}</em>, @UUID[Compendium.pf2e.deities.o9tK1T28LNEVzpFV]{Рагдья}, @UUID[Compendium.pf2e.deities.u3YfcJh1C4w6n75j]{Ромия}, @UUID[Compendium.pf2e.deities.97Qe42wJN5EVUS14]{Стуровенен}, @UUID[Compendium.pf2e.deities.PFp4Sdp2TDDKD62l]{Тамир}, @UUID[Compendium.pf2e.deities.N8a76dkGfUvxvSW0]{Трудд}, <em>@UUID[Compendium.pf2e.deities.gutbzYTZvRTnq4on]{Аданьи}, @UUID[Compendium.pf2e.deities.IK2AL3bL6htrrnnC]{Skode}</em></p>\n<p><strong>Доменное заклинание:</strong> <em>@UUID[Compendium.pf2e.spells-srd.Q25JQAgnJSGgFDKZ]{Покров уверенности}</em>; <strong>Продвинутое доменное заклинание:</strong> <em>@UUID[Compendium.pf2e.spells-srd.J8pL8yTshga8QOk8]{Обманчивая самоуверенность}</em></p>\n<p>Вы преодолеваете свой страх и излучаете уверенность.</p>"
		},
		"Creation Domain": {
			"name": "Творчество",
			"description": "<p><strong>Божества:</strong> @UUID[Compendium.pf2e.deities.uXkMGx0OD896ZQlT]{Альгленвейс}, @UUID[Compendium.pf2e.deities.o8ayCv3LAHWlu0vQ]{Апсу}, @UUID[Compendium.pf2e.deities.uydTiyN5AzhBnQY8]{Ардад Лили}, @UUID[Compendium.pf2e.deities.vEMCpm7iidycRT5D]{Брай}, @UUID[Compendium.pf2e.deities.soiVh53y9RAeSLEk]{Касандали}, @UUID[Compendium.pf2e.deities.M3eb94Nd6uXti2IK]{Дайкицу}, @UUID[Compendium.pf2e.deities.AMFkYKUNQ3kCD0ob]{Долорас}, @UUID[Compendium.pf2e.deities.IXLzDSMGndFb5rGY]{Фалэйна}, @UUID[Compendium.pf2e.deities.liXIbl7y8www2eAn]{Финделадлара}, @UUID[Compendium.pf2e.deities.fuPTR1laXO6EionS]{Бабушка Паучиха}, @UUID[Compendium.pf2e.deities.xu05XGotyT5st56H]{Госпожа Цзинси}, @UUID[Compendium.pf2e.deities.lUFMwdv1UOyzFhIM]{Ликха}, @UUID[Compendium.pf2e.deities.sNjPI1iaS8Z43YJf]{Маммон}, @UUID[Compendium.pf2e.deities.W4QGkdn9V5ACRpkh]{Монада}, @UUID[Compendium.pf2e.deities.jL1qiVOZBKXETtVD]{Ноктикула}, @UUID[Compendium.pf2e.deities.JgDqFUB1NtQkGmzp]{Отолмэнс}, @UUID[Compendium.pf2e.deities.gxwmzxUWBOhdgFSN]{Шелин}, @UUID[Compendium.pf2e.deities.vnmoAGURp8oWCY6R]{Соралион}, <em>@UUID[Compendium.pf2e.deities.0R2BjVb7d9tYCIbk]{Тлехар}</em>, @UUID[Compendium.pf2e.deities.sZrdzh0ANQnZGXJb]{Тораг}, @UUID[Compendium.pf2e.deities.uYpxTi4byHc5w78R]{Юльрал}, @UUID[Compendium.pf2e.deities.w4fDrwL8VIqJDPfR]{Увуко}, @UUID[Compendium.pf2e.deities.smGfeOk8Jgcz0Qkv]{Immonhiel}</p>\n<p><strong>Пантеоны:</strong> @UUID[Compendium.pf2e.deities.6mgCX7lvKtaEYoa9]{Дварфийский пантеон}, @UUID[Compendium.pf2e.deities.Zw8nhcpRxinoYRSa]{Эльфийский пантеон}, @UUID[Compendium.pf2e.deities.6nq25AjImkT5GxDT]{Призменный луч}, @UUID[Compendium.pf2e.deities.WO9UsCY41oTtC2G0]{Столпы знаний}, @UUID[Compendium.pf2e.deities.y3RlZ3FnbZN8wv8j]{Демононосцы}</p>\n<p><strong>Доменное заклинание:</strong> <em>@UUID[Compendium.pf2e.spells-srd.xTpp8dHZsNMDm75B]{Всплеск искусства}</em>; <strong>Продвинутое доменное заклинание:</strong> <em>@UUID[Compendium.pf2e.spells-srd.eb4FXf62NYArTqek]{Художественный размах}</em></p>\n<p>У вас есть божественные способности связанные с ремеслом и искусством.</p>"
		},
		"Darkness Domain": {
			"name": "Тьма",
			"description": "<p><strong>Божества:</strong> @UUID[Compendium.pf2e.deities.pCtJONJlhAugUXaG]{Ариман}, @UUID[Compendium.pf2e.deities.uydTiyN5AzhBnQY8]{Ардад Лили}, @UUID[Compendium.pf2e.deities.DJ7LDFTtns6YFodT]{Ашава}, @UUID[Compendium.pf2e.deities.vSUz97Y29l1O50bC]{Граф Раналк}, <em>@UUID[Compendium.pf2e.deities.fuPTR1laXO6EionS]{Бабушка Паучиха}</em>, @UUID[Compendium.pf2e.deities.WloVxo6HXJdS4YTt]{Гротус}, @UUID[Compendium.pf2e.deities.s81N9hxffmRuy3ik]{Керкамот}, @UUID[Compendium.pf2e.deities.wjXNXFWBLbJaeZQR]{Кетефис}, @UUID[Compendium.pf2e.deities.MbJ93Nw39h2cBYi5]{Лао Шу По}, @UUID[Compendium.pf2e.deities.ub0PJ5QkrdoGzzb2]{Лухар}, @UUID[Compendium.pf2e.deities.jL1qiVOZBKXETtVD]{Ноктикула}, @UUID[Compendium.pf2e.deities.iKgERiIc8rt3fatf]{Ньярлатотеп (Обитающий во Мраке)}, @UUID[Compendium.pf2e.deities.3nxIpMGeCvcBIVov]{Ньярлатотеп (Ползучий хаос)}, @UUID[Compendium.pf2e.deities.Vzxm5FyIA40b2OSP]{Полура}, @UUID[Compendium.pf2e.deities.DFxbPmQLOqcmbPTz]{Танагаар}, @UUID[Compendium.pf2e.deities.ZfN7jkK6boU1FuiS]{Зон-Кутон}, <em>@UUID[Compendium.pf2e.deities.kiTcZxmKxGPCwDpg]{Калькот}</em></p>\n<p><strong>Пантеоны:</strong> @UUID[Compendium.pf2e.deities.oV5cnlPJQS8JfMIg]{Космический караван}, <em>@UUID[Compendium.pf2e.deities.VG51y4FbTLdeGHZB]{Путь Небес}</em></p>\n<p><strong>Доменное заклинание:</strong> <em>@UUID[Compendium.pf2e.spells-srd.SE0fbgBj7atuukdv]{Плащ тени}</em>; <strong>Продвинутое доменное заклинание:</strong> <em>@UUID[Compendium.pf2e.spells-srd.oiUhJbJ3YCKF62Fu]{Потемневшие глаза}</em></p>\n<p>Вы действуете в темноте и забираете свет.</p>"
		},
		"Death Domain": {
			"name": "Смерть",
			"description": "<p><strong>Божества:</strong> @UUID[Compendium.pf2e.deities.51kMMWaT6CqpGlGk]{Ачакек},<strong></strong> @UUID[Compendium.pf2e.deities.pCtJONJlhAugUXaG]{Ариман}, @UUID[Compendium.pf2e.deities.UUcAqU3KeJSMNxGF]{Барзак}, @UUID[Compendium.pf2e.deities.tcXrtRYCOr2EmgGB]{Харон}, @UUID[Compendium.pf2e.deities.H1VrZ1QX0d2aPXT8]{Даммерих}, @UUID[Compendium.pf2e.deities.QlDnoOwf0PppymTn]{Ханспур}, @UUID[Compendium.pf2e.deities.KIEgpcmHYtFu1dpg]{Имот}, @UUID[Compendium.pf2e.deities.nsiDGdgbAzkTQzOt]{Магрим}, @UUID[Compendium.pf2e.deities.E1dUhoSEf2XfklU2]{Мать-Стервятник}, @UUID[Compendium.pf2e.deities.pm8H2DbtrHM01KNV]{Надири}, @UUID[Compendium.pf2e.deities.hhV2g6aU8jKLEca1]{Наракаас}, @UUID[Compendium.pf2e.deities.GX6PF9ifR47Xyjg9]{Норгорбер}, @UUID[Compendium.pf2e.deities.QZD0u1jxwz0kj8uI]{Фаразма}, @UUID[Compendium.pf2e.deities.1xHnoMlCyCV70TnT]{Салок}, @UUID[Compendium.pf2e.deities.zzhYFcShT9JoE2Mp]{Шакс}, @UUID[Compendium.pf2e.deities.83jKKHQPoqVylmrF]{Йечжин}, @UUID[Compendium.pf2e.deities.LLMTMgARSTlO7S9U]{Зиф}, @UUID[Compendium.pf2e.deities.kiTcZxmKxGPCwDpg]{Калькот}, @UUID[Compendium.pf2e.deities.9vcKBv8h5vugb8lL]{Fandarra}</p>\n<p><strong>Доменное заклинание:</strong> <em>@UUID[Compendium.pf2e.spells-srd.HG4afO9EOGEU9bZN]{Зов смерти}</em>; <strong>Продвинутое доменное заклинание:</strong> <em>@UUID[Compendium.pf2e.spells-srd.J5MNC4xq3CHH31qT]{Истребление нежити}</em></p>\n<p>У вас есть сила обрывать жизни и уничтожать нежить.</p>"
		},
		"Decay Domain": {
			"name": "Разложение",
			"description": "<p><strong>Божества:</strong> @UUID[Compendium.pf2e.deities.oJPwMa9xG8oMnC14]{Аполлион}, @UUID[Compendium.pf2e.deities.sILda7I8Ak20Ioj9]{Азатот}, @UUID[Compendium.pf2e.deities.gXHoxuuiAD54LnWV]{Сит-Ви'заг}, @UUID[Compendium.pf2e.deities.oRvuLq3o2FxXizt9]{Глондер}, <em>@UUID[Compendium.pf2e.deities.WloVxo6HXJdS4YTt]{Гротус}</em>, @UUID[Compendium.pf2e.deities.s81N9hxffmRuy3ik]{Керкамот}, @UUID[Compendium.pf2e.deities.E1dUhoSEf2XfklU2]{Мать-Стервятник}, @UUID[Compendium.pf2e.deities.8Oy4qHylOOp79JxD]{Нимбалот}, @UUID[Compendium.pf2e.deities.3INt1X4ijBYnZYbU]{Шайка}, @UUID[Compendium.pf2e.deities.pVQzTL5elNTxvffu]{Зеленая Мать}, @UUID[Compendium.pf2e.deities.9eltBjLngkR9x1Xm]{Трелмариксиан}, <em>@UUID[Compendium.pf2e.deities.22n3N47sqbqbDxbp]{Ургатоа}</em>, @UUID[Compendium.pf2e.deities.mebdNVKeKuTmDDHj]{Жамен-Дор}</p>\n<p><strong>Доменное заклинание:</strong> <em>@UUID[Compendium.pf2e.spells-srd.7tp97g0UCJ9wOrd5]{Хватка увядания}</em>; <strong>Продвинутое доменное заклинание:</strong> <em>@UUID[Compendium.pf2e.spells-srd.2RhZkHNv8ajq0yLq]{Желтоватое поле}</em></p>\n<p>У вас есть власть портить и разлагать материю.</p>"
		},
		"Delirium Domain": {
			"name": "Бред",
			"description": "<p><strong>Божества:</strong> @UUID[Compendium.pf2e.deities.65o189p2eUPbqaDK]{Наррисеминек}, <em>@UUID[Compendium.pf2e.deities.8Oy4qHylOOp79JxD]{Нимбалот}</em>, @UUID[Compendium.pf2e.deities.3INt1X4ijBYnZYbU]{Шайка}, @UUID[Compendium.pf2e.deities.iJyhAFmHOLZBvWnJ]{Сивана}, @UUID[Compendium.pf2e.deities.nuqIimigyt986WLE]{Король Фонарей}, @UUID[Compendium.pf2e.deities.aTYy1WHwAZiuei4h]{Цукио}, @UUID[Compendium.pf2e.deities.8ZSywyo8YQPduo92]{Зура}</p>\n<p><strong>Доменное заклинание:</strong> <em>@UUID[Compendium.pf2e.spells-srd.XhgMx9WC6NfXd9RP]{Сверхсосредоточенность}</em>; <strong>Продвинутое доменное заклинание:</strong> <em>@UUID[Compendium.pf2e.spells-srd.HisaZTk67YAxLGBq]{Эфемерные опасности}</em></p>\n<p>Вы можете вызвать галлюцинации и беспокойство.</p>"
		},
		"Destruction Domain": {
			"name": "Разрушение",
			"description": "<p><strong>Божества:</strong> @UUID[Compendium.pf2e.deities.bLI1JMpI2GXQT5AC]{Абраксас}, @UUID[Compendium.pf2e.deities.pCtJONJlhAugUXaG]{Ариман}, @UUID[Compendium.pf2e.deities.cHAbE86pto5bvIWo]{Ангажан}, @UUID[Compendium.pf2e.deities.aChBtIDfA59QQ7SN]{Айрзул}, @UUID[Compendium.pf2e.deities.sILda7I8Ak20Ioj9]{Азатот}, @UUID[Compendium.pf2e.deities.wkDOeK7ENz1ra8IC]{Бесмара}, @UUID[Compendium.pf2e.deities.AHX89nhuVhmg8k6w]{Дагон}, @UUID[Compendium.pf2e.deities.Bzfc5mIUfMxOnQWu]{Дахак}, @UUID[Compendium.pf2e.deities.dcbf3pBSNa2q1Kkq]{Дхалавей}, @UUID[Compendium.pf2e.deities.XHDlP7o1jNz9851v]{Диомазул}, @UUID[Compendium.pf2e.deities.aVyxfqY9GBjTqQul]{Эйсет}, @UUID[Compendium.pf2e.deities.6O4UGWcYERDEugzk]{Фумейоши}, @UUID[Compendium.pf2e.deities.Zi1UARhode3FSFLr]{Генерал Сусуму}, @UUID[Compendium.pf2e.deities.88vRw2ZVPax4hhga]{Горум}, @UUID[Compendium.pf2e.deities.WloVxo6HXJdS4YTt]{Гротус}, <em>@UUID[Compendium.pf2e.deities.DEKKbg6riAdL2ARf]{Хэй Фэн}</em>, @UUID[Compendium.pf2e.deities.A37XqON6QRPzQhp7]{Шурха}, @UUID[Compendium.pf2e.deities.KIEgpcmHYtFu1dpg]{Имот}, @UUID[Compendium.pf2e.deities.14GLsVobnZTEmJrs]{Келизандри}, @UUID[Compendium.pf2e.deities.s81N9hxffmRuy3ik]{Керкамот}, @UUID[Compendium.pf2e.deities.JcIf4uwKLxEWdplI]{Кощиччи}, @UUID[Compendium.pf2e.deities.r6SFB1PzKsagDXff]{Госпожа Наньбо}, @UUID[Compendium.pf2e.deities.fTJLgTfEMZreJ19r]{Милани}, @UUID[Compendium.pf2e.deities.g1VxllMjs2YRIJAm]{Молох}, @UUID[Compendium.pf2e.deities.9EKyWmjLUu42evxC]{Нефис}, @UUID[Compendium.pf2e.deities.SAuFz101iP6VVwvw]{Нургал}, @UUID[Compendium.pf2e.deities.XYJupIPx0GW4s7eu]{Рагадан}, @UUID[Compendium.pf2e.deities.GEBaoeiv5CB9h2Bn]{Рагатиэль}, @UUID[Compendium.pf2e.deities.Bhxji0kxIbMKqdkw]{Ровагуг}, @UUID[Compendium.pf2e.deities.0nQItOlce5ua6Eaf]{Сехмет}, @UUID[Compendium.pf2e.deities.rDTXcBJ8LyqA2TkL]{Зуриэль}, @UUID[Compendium.pf2e.deities.ENzMYuzBZGIujSMx]{Древотес}, @UUID[Compendium.pf2e.deities.7L9KIqixgseSCY3X]{Имери}, @UUID[Compendium.pf2e.deities.8roijlQ03l9rWFFe]{Зевгавизеб}, @UUID[Compendium.pf2e.deities.ZfN7jkK6boU1FuiS]{Зон-Кутон}, <em>@UUID[Compendium.pf2e.deities.CnDEoo6WruQCXo1o]{Любайко}</em></p>\n<p><strong>Пантеоны:</strong> <em>@UUID[Compendium.pf2e.deities.KPrtgoIcgiBSKzS3]{Освобождающее пламя}</em></p>\n<p><strong>Доменное заклинание:</strong> <em>@UUID[Compendium.pf2e.spells-srd.0H1ozccQGGFLUwFI]{Крик разрушения}</em>; <strong>Продвинутое доменное заклинание:</strong> <em>@UUID[Compendium.pf2e.spells-srd.7d4DUTDIlzDa8OvX]{Разрушительная аура}</em></p>\n<p>Вы проводник божественного опустошения.</p>"
		},
		"Dreams Domain": {
			"name": "Сны",
			"description": "<p><strong>Божества:</strong> @UUID[Compendium.pf2e.deities.JgqH3BhuEuA4Zyqs]{Дезна}, @UUID[Compendium.pf2e.deities.VvxEvEKhCGRwrMJp]{Имбрекс}, @UUID[Compendium.pf2e.deities.ub0PJ5QkrdoGzzb2]{Лухар}, @UUID[Compendium.pf2e.deities.mebdNVKeKuTmDDHj]{Жамен-Дор}</p>\n<p><strong>Доменное заклинание:</strong> <em>@UUID[Compendium.pf2e.spells-srd.BRtKFk0PKfWIlCAB]{Сладкий сон}</em>; <strong>Продвинутое доменное заклинание:</strong> <em>@UUID[Compendium.pf2e.spells-srd.PztLrElcZfLwRnEq]{Зов мечтателя}</em></p>\n<p>У вас есть сила входить во сны и манипулировать ими.</p>"
		},
		"Dust Domain": {
			"name": "Пыль",
			"description": "<p><strong>Божества:</strong> @UUID[Compendium.pf2e.deities.A37XqON6QRPzQhp7]{Шурха}, @UUID[Compendium.pf2e.deities.SAuFz101iP6VVwvw]{Нургал}, @UUID[Compendium.pf2e.deities.9eltBjLngkR9x1Xm]{Трелмариксиан}, @UUID[Compendium.pf2e.deities.7L9KIqixgseSCY3X]{Имери}</p>\n<p><strong>Доменное заклинание:</strong> <em>@UUID[Compendium.pf2e.spells-srd.7CUgqHunmHfW2lC5]{Иссушение}</em>; <strong>Продвинутое доменное заклинание:</strong> <em>@UUID[Compendium.pf2e.spells-srd.K1wmI4qPmRhFczmy]{Пылевая буря}</em></p>\n<p>У вас есть сила высушивать и распылять то, что противостоит вам.</p>"
		},
		"Duty Domain": {
			"name": "Долг",
			"description": "<p><strong>Божества:</strong> <em>@UUID[Compendium.pf2e.deities.d56paSkcwvll2OhR]{Абадар}</em>, <em>@UUID[Compendium.pf2e.deities.QRkcFciCOmFoxF1B]{Асмодей}</em>, <em>@UUID[Compendium.pf2e.deities.OlVCyRgOaPJji4qt]{Чохар}</em>, @UUID[Compendium.pf2e.deities.H1VrZ1QX0d2aPXT8]{Даммерих}, @UUID[Compendium.pf2e.deities.CzHjFLx4hpIEIoWt]{Диспатер}, @UUID[Compendium.pf2e.deities.39z55kowQFOUH2v0]{Дроскар}, <em>@UUID[Compendium.pf2e.deities.mm1j6UbHqFCI8fwB]{Эрастил}</em>, <em>@UUID[Compendium.pf2e.deities.eErEiVmBqltYXFJ6]{Айомедэй}</em>, @UUID[Compendium.pf2e.deities.zhPhYge7VJbIlJvA]{Колс}, @UUID[Compendium.pf2e.deities.nsiDGdgbAzkTQzOt]{Магрим}, @UUID[Compendium.pf2e.deities.g1VxllMjs2YRIJAm]{Молох}, @UUID[Compendium.pf2e.deities.GEBaoeiv5CB9h2Bn]{Рагатиэль}, @UUID[Compendium.pf2e.deities.s9opv94lGDRKnw6W]{Шицуру}, @UUID[Compendium.pf2e.deities.DFxbPmQLOqcmbPTz]{Танагаар}, <em>@UUID[Compendium.pf2e.deities.sZrdzh0ANQnZGXJb]{Тораг}</em>, @UUID[Compendium.pf2e.deities.N8a76dkGfUvxvSW0]{Трудд}, @UUID[Compendium.pf2e.deities.y93whGnGZjFyw5A0]{Вильдейс}, @UUID[Compendium.pf2e.deities.83jKKHQPoqVylmrF]{Йечжин}, @UUID[Compendium.pf2e.deities.gutbzYTZvRTnq4on]{Аданьи}, <em>@UUID[Compendium.pf2e.deities.v1fsLP6nTkiy5ghB]{Мазлюдэ}</em>, <em>@UUID[Compendium.pf2e.deities.g1AVEGi8QibhS007]{Уокена}</em></p>\n<p><strong>Пантеоны:</strong> <em>@UUID[Compendium.pf2e.deities.6mgCX7lvKtaEYoa9]{Дварфийский пантеон}</em>, <em>@UUID[Compendium.pf2e.deities.JndhOIHnQoMwnsw3]{Божественная десница}</em>, <em>@UUID[Compendium.pf2e.deities.y3RlZ3FnbZN8wv8j]{Демононосцы}</em></p>\n<p><strong>Доменное заклинание:</strong> <em>@UUID[Compendium.pf2e.spells-srd.cokeXkDHUAo4zHsw]{Эмблема хранителя клятвы}</em>; <strong>Продвинутое доменное заклинание:</strong> <em>@UUID[Compendium.pf2e.spells-srd.caehfpQz7yp9yNzz]{Почтительный вызов}</em></p>\n<p>Вы защищаете клятвы и выполняете свои божественные миссии с преданностью.</p>"
		},
		"Earth Domain": {
			"name": "Земля",
			"description": "<p><strong>Божества:</strong> @UUID[Compendium.pf2e.deities.d56paSkcwvll2OhR]{Абадар}, @UUID[Compendium.pf2e.deities.RbslST0RZPXj6Eby]{Ашухарма}, @UUID[Compendium.pf2e.deities.aChBtIDfA59QQ7SN]{Айрзул}, @UUID[Compendium.pf2e.deities.eyGEoggFlTEUQmvJ]{Бэс}, @UUID[Compendium.pf2e.deities.vEMCpm7iidycRT5D]{Брай}, @UUID[Compendium.pf2e.deities.XHDlP7o1jNz9851v]{Диомазул}, @UUID[Compendium.pf2e.deities.39z55kowQFOUH2v0]{Дроскар}, @UUID[Compendium.pf2e.deities.mm1j6UbHqFCI8fwB]{Эрастил}, @UUID[Compendium.pf2e.deities.6O4UGWcYERDEugzk]{Фумейоши}, @UUID[Compendium.pf2e.deities.3ffVxwgtvR1imHm8]{Гендовин}, @UUID[Compendium.pf2e.deities.VvxEvEKhCGRwrMJp]{Имбрекс}, <em>@UUID[Compendium.pf2e.deities.Mv6uTJLh3VGEoGLH]{Ниви Ромбодазл}</em>, @UUID[Compendium.pf2e.deities.Bhxji0kxIbMKqdkw]{Ровагуг}, @UUID[Compendium.pf2e.deities.1NxkZf6ndijKeufX]{Сайразул}, @UUID[Compendium.pf2e.deities.vnmoAGURp8oWCY6R]{Соралион}, @UUID[Compendium.pf2e.deities.sZrdzh0ANQnZGXJb]{Тораг}, @UUID[Compendium.pf2e.deities.9eltBjLngkR9x1Xm]{Трелмариксиан}, @UUID[Compendium.pf2e.deities.tb0oADxOoMhyrYRA]{Ямацуми}, @UUID[Compendium.pf2e.deities.uYpxTi4byHc5w78R]{Юльрал}, <em>@UUID[Compendium.pf2e.deities.9vcKBv8h5vugb8lL]{Fandarra}</em></p>\n<p><strong>Доменное заклинание:</strong> <em>@UUID[Compendium.pf2e.spells-srd.pRKaEXnjGJXbPHPC]{Летящий камень}</em>; <strong>Продвинутое доменное заклинание:</strong> <em>@UUID[Compendium.pf2e.spells-srd.cBUuG1yJHGeKffpg]{Локальное землетрясение}</em></p>\n<p>Вы управляете почвой и камнем.</p>"
		},
		"Family Domain": {
			"name": "Семья",
			"description": "<p><strong>Божества:</strong> @UUID[Compendium.pf2e.deities.CDkr6eXR1lgu7g6A]{Андолетта}, @UUID[Compendium.pf2e.deities.eyGEoggFlTEUQmvJ]{Бэс}, @UUID[Compendium.pf2e.deities.HD7g8T8ioy1EH3M8]{Болка}, @UUID[Compendium.pf2e.deities.OlVCyRgOaPJji4qt]{Чохар}, @UUID[Compendium.pf2e.deities.M3eb94Nd6uXti2IK]{Дайкицу}, @UUID[Compendium.pf2e.deities.mm1j6UbHqFCI8fwB]{Эрастил}, @UUID[Compendium.pf2e.deities.liXIbl7y8www2eAn]{Финделадлара}, @UUID[Compendium.pf2e.deities.VEyowuhC4FsBnG8c]{Фолгрит}, @UUID[Compendium.pf2e.deities.xxUGdZYUj5IW7E0L]{Последователи судьбы}, @UUID[Compendium.pf2e.deities.3ffVxwgtvR1imHm8]{Гендовин}, @UUID[Compendium.pf2e.deities.fuPTR1laXO6EionS]{Бабушка Паучиха}, @UUID[Compendium.pf2e.deities.tk7gRxXsqvBwQrUF]{Грундиннар}, @UUID[Compendium.pf2e.deities.TpAMy8tb5LrRgvqN]{Хатхор}, @UUID[Compendium.pf2e.deities.VvxEvEKhCGRwrMJp]{Имбрекс}, @UUID[Compendium.pf2e.deities.EFyDjlH7XjGq7Erd]{Изида}, @UUID[Compendium.pf2e.deities.aLCfEgt48SRUHnMC]{Джайди}, @UUID[Compendium.pf2e.deities.iXvyp9rGnqvFfy4q]{Казутал}, @UUID[Compendium.pf2e.deities.aipkJQxP4GBsTaGq]{Ламашту}, @UUID[Compendium.pf2e.deities.Mv6uTJLh3VGEoGLH]{Ниви Ромбодазл}, @UUID[Compendium.pf2e.deities.1NxkZf6ndijKeufX]{Сайразул}, @UUID[Compendium.pf2e.deities.ra7mnjAZcEuJxI37]{Шей}, @UUID[Compendium.pf2e.deities.gxwmzxUWBOhdgFSN]{Шелин}, @UUID[Compendium.pf2e.deities.fTs56epghXwclPcX]{Оленья Мать Леса Камней}, @UUID[Compendium.pf2e.deities.sZrdzh0ANQnZGXJb]{Тораг}, @UUID[Compendium.pf2e.deities.g1AVEGi8QibhS007]{Уокена}, @UUID[Compendium.pf2e.deities.gutbzYTZvRTnq4on]{Аданьи}, @UUID[Compendium.pf2e.deities.v1fsLP6nTkiy5ghB]{Мазлюдэ}, @UUID[Compendium.pf2e.deities.9vcKBv8h5vugb8lL]{Fandarra}, @UUID[Compendium.pf2e.deities.30uY6NkhYmPI3Oii]{Bergelmir}, @UUID[Compendium.pf2e.deities.44fcXgp3fnkoyb4R]{Rowdrosh}</p>\n<p><strong>Пантеоны:</strong> @UUID[Compendium.pf2e.deities.6mgCX7lvKtaEYoa9]{Дварфийский пантеон}, <em>@UUID[Compendium.pf2e.deities.6nq25AjImkT5GxDT]{Призменный луч}</em>, @UUID[Compendium.pf2e.deities.ZynnoQJFz12FD0Xn]{Обереги Фараона}, @UUID[Compendium.pf2e.deities.y3RlZ3FnbZN8wv8j]{Демононосцы}, @UUID[Compendium.pf2e.deities.LGOkWwN6AZhLiZpl]{Касание солнца}</p>\n<p><strong>Доменное заклинание:</strong> <em>@UUID[Compendium.pf2e.spells-srd.YGRpHU5yxw73mls8]{Успокаивающие слова}</em>; <strong>Продвинутое доменное заклинание:</strong> <em>@UUID[Compendium.pf2e.spells-srd.tYLBjOTvBVn9JtRb]{Единство}</em></p>\n<p>Вы более эффективно защищаете свою семью и сообщество.</p>"
		},
		"Fate Domain": {
			"name": "Судьба",
			"description": "<p><strong>Божества:</strong> @UUID[Compendium.pf2e.deities.Xb1N5YfxboJH26Jh]{Ангред}, @UUID[Compendium.pf2e.deities.Dm8qlzpUj7g82QFv]{Эрикьюра}, @UUID[Compendium.pf2e.deities.xxUGdZYUj5IW7E0L]{Последователи судьбы}, @UUID[Compendium.pf2e.deities.fuPTR1laXO6EionS]{Бабушка Паучиха}, @UUID[Compendium.pf2e.deities.KIEgpcmHYtFu1dpg]{Имот}, @UUID[Compendium.pf2e.deities.lSciGZGcbU9PJxQy]{Ирэз}, @UUID[Compendium.pf2e.deities.w66gCNiZ7dslqG8K]{Лиссала}, <em>@UUID[Compendium.pf2e.deities.ub0PJ5QkrdoGzzb2]{Лухар}</em>, @UUID[Compendium.pf2e.deities.SCMlQDcoU1QcF3AS]{Лисианасса}, @UUID[Compendium.pf2e.deities.iMRXc519Uepf8yH3]{Магд}, @UUID[Compendium.pf2e.deities.nsiDGdgbAzkTQzOt]{Магрим}, @UUID[Compendium.pf2e.deities.Af4TSJjutVi9Vdwi]{Махатхалла}, @UUID[Compendium.pf2e.deities.JgDqFUB1NtQkGmzp]{Отолмэнс}, @UUID[Compendium.pf2e.deities.QZD0u1jxwz0kj8uI]{Фаразма}, @UUID[Compendium.pf2e.deities.1nQVLOyWv5kC0bCU]{Равитра}, @UUID[Compendium.pf2e.deities.3INt1X4ijBYnZYbU]{Шайка}, @UUID[Compendium.pf2e.deities.9FWBJcADLEeP8Krf]{Вальмаллос}</p>\n<p><strong>Пантеоны:</strong> @UUID[Compendium.pf2e.deities.oV5cnlPJQS8JfMIg]{Космический караван}</p>\n<p><strong>Доменное заклинание:</strong> <em>@UUID[Compendium.pf2e.spells-srd.Vvxgn7saUPW2bJhb]{Чтение судьбы}</em>; <strong>Продвинутое доменное заклинание:</strong> <em>@UUID[Compendium.pf2e.spells-srd.GqvKSxzN7A7kuFk4]{Искушать судьбу}</em></p>\n<p>Вы видите и понимаете неизбежное.</p>"
		},
		"Fire Domain": {
			"name": "Огонь",
			"description": "<p><strong>Божества:</strong> @UUID[Compendium.pf2e.deities.Xb1N5YfxboJH26Jh]{Ангред}, @UUID[Compendium.pf2e.deities.QRkcFciCOmFoxF1B]{Асмодей}, @UUID[Compendium.pf2e.deities.R0DvoLO8WbYIYhb3]{Атрея}, <em>@UUID[Compendium.pf2e.deities.vEMCpm7iidycRT5D]{Брай}</em>, @UUID[Compendium.pf2e.deities.OlVCyRgOaPJji4qt]{Чохар}, @UUID[Compendium.pf2e.deities.Bzfc5mIUfMxOnQWu]{Дахак}, @UUID[Compendium.pf2e.deities.39z55kowQFOUH2v0]{Дроскар}, @UUID[Compendium.pf2e.deities.r6SFB1PzKsagDXff]{Госпожа Наньбо}, @UUID[Compendium.pf2e.deities.g1VxllMjs2YRIJAm]{Молох}, @UUID[Compendium.pf2e.deities.SAuFz101iP6VVwvw]{Нургал}, @UUID[Compendium.pf2e.deities.woDEgBs1MznhzpJ4]{Ра}, @UUID[Compendium.pf2e.deities.GEBaoeiv5CB9h2Bn]{Рагатиэль}, @UUID[Compendium.pf2e.deities.BNycwu3I21dTh4D9]{Саренрэй}, @UUID[Compendium.pf2e.deities.rDTXcBJ8LyqA2TkL]{Зуриэль}, @UUID[Compendium.pf2e.deities.tb0oADxOoMhyrYRA]{Ямацуми}, @UUID[Compendium.pf2e.deities.7L9KIqixgseSCY3X]{Имери}, <em>@UUID[Compendium.pf2e.deities.gutbzYTZvRTnq4on]{Аданьи}</em>, @UUID[Compendium.pf2e.deities.CnDEoo6WruQCXo1o]{Любайко}, <em>@UUID[Compendium.pf2e.deities.g1AVEGi8QibhS007]{Уокена}</em></p>\n<p><strong>Доменное заклинание:</strong> <em>@UUID[Compendium.pf2e.spells-srd.oJKZi8OQgmVXHOc0]{Огненный луч}</em>; <strong>Продвинутое доменное заклинание:</strong> <em>@UUID[Compendium.pf2e.spells-srd.y7Tusv3CieZktkkV]{Огненная преграда}</em></p>\n<p>Вы управляете пламенем.</p>"
		},
		"Freedom Domain": {
			"name": "Свобода",
			"description": "<p><strong>Божества:</strong> @UUID[Compendium.pf2e.deities.HtRxo4J3elFteIqu]{Аразни}, @UUID[Compendium.pf2e.deities.KDFujU3Yug6AwCOz]{Аршей}, @UUID[Compendium.pf2e.deities.c9NFjRR8gr6CWpjl]{Черная бабочка}, @UUID[Compendium.pf2e.deities.soiVh53y9RAeSLEk]{Касандали}, @UUID[Compendium.pf2e.deities.v67fHklTZ6LoU54q]{Кайдэн Кайлин}, @UUID[Compendium.pf2e.deities.IXLzDSMGndFb5rGY]{Фалэйна}, @UUID[Compendium.pf2e.deities.iXvyp9rGnqvFfy4q]{Казутал}, @UUID[Compendium.pf2e.deities.fTJLgTfEMZreJ19r]{Милани}, @UUID[Compendium.pf2e.deities.65o189p2eUPbqaDK]{Наррисеминек}, @UUID[Compendium.pf2e.deities.Ij1KRM8ufkEjGnR3]{Рангинори}, @UUID[Compendium.pf2e.deities.1xHnoMlCyCV70TnT]{Салок}, @UUID[Compendium.pf2e.deities.ra7mnjAZcEuJxI37]{Шей}, @UUID[Compendium.pf2e.deities.g1AVEGi8QibhS007]{Уокена}</p>\n<p><strong>Пантеоны:</strong> @UUID[Compendium.pf2e.deities.oV5cnlPJQS8JfMIg]{Космический караван}, @UUID[Compendium.pf2e.deities.KPrtgoIcgiBSKzS3]{Освобождающее пламя}, <em>@UUID[Compendium.pf2e.deities.yIfdsL1788boOOYk]{Хранители неба}</em></p>\n<p><strong>Доменное заклинание:</strong> <em>@UUID[Compendium.pf2e.spells-srd.gwOYh5zMVZB0HNcT]{Беспрепятственное перемещение}</em>; <strong>Продвинутое доменное заклинание:</strong> <em>@UUID[Compendium.pf2e.spells-srd.2jB9eyX7YekwoCvA]{Слово свободы}</em></p>\n<p>Вы освобождаете себя и других от оков и ограничений.</p>"
		},
		"Glyph Domain": {
			"name": "Глиф",
			"description": "<p><strong>Божества:</strong> <em>@UUID[Compendium.pf2e.deities.QRkcFciCOmFoxF1B]{Асмодей}</em>, @UUID[Compendium.pf2e.deities.8DXel4AvpyUy6oJ0]{Эритрайс}, @UUID[Compendium.pf2e.deities.tcvobm8O84qv0aO5]{Грухаста}, @UUID[Compendium.pf2e.deities.WvoMr86bSSYxXKtI]{Хастур}, @UUID[Compendium.pf2e.deities.KIEgpcmHYtFu1dpg]{Имот}, @UUID[Compendium.pf2e.deities.lSciGZGcbU9PJxQy]{Ирэз}, @UUID[Compendium.pf2e.deities.xu05XGotyT5st56H]{Госпожа Цзинси}, @UUID[Compendium.pf2e.deities.w66gCNiZ7dslqG8K]{Лиссала}, @UUID[Compendium.pf2e.deities.iMRXc519Uepf8yH3]{Магд}, @UUID[Compendium.pf2e.deities.nsiDGdgbAzkTQzOt]{Магрим}, @UUID[Compendium.pf2e.deities.KWVdoAm3b01M8Lcp]{Мефистофель}, @UUID[Compendium.pf2e.deities.gsFaxWHbZmc1moY6]{Налинивати}, <em>@UUID[Compendium.pf2e.deities.9EKyWmjLUu42evxC]{Нефис}</em>, <em>@UUID[Compendium.pf2e.deities.iJyhAFmHOLZBvWnJ]{Сивана}</em>, @UUID[Compendium.pf2e.deities.aievwuZalZ2abs2q]{Тот}, @UUID[Compendium.pf2e.deities.9FWBJcADLEeP8Krf]{Вальмаллос}, @UUID[Compendium.pf2e.deities.8wOAwLMgB1HFLo9n]{Уинлэс}, @UUID[Compendium.pf2e.deities.iEt6idGIEPXY2HzV]{Идаджиск}</p>\n<p><strong>Пантеоны:</strong> <em>@UUID[Compendium.pf2e.deities.6mgCX7lvKtaEYoa9]{Дварфийский пантеон}</em>, <em>@UUID[Compendium.pf2e.deities.ZynnoQJFz12FD0Xn]{Обереги Фараона}</em>, <em>@UUID[Compendium.pf2e.deities.WO9UsCY41oTtC2G0]{Столпы знаний}</em><strong>Доменное заклинание:</strong> <em>@UUID[Compendium.pf2e.spells-srd.ifXNOhtmU4fKL68v]{Редактировать}</em>; <strong>Продвинутое доменное заклинание:</strong> <em>@UUID[Compendium.pf2e.spells-srd.vhe9DduqaivMs8FV]{Призрачная транскрипция}</em></p>\n<p>Вы обладаете властью над написанными словами и символами.</p>"
		},
		"Healing Domain": {
			"name": "Исцеление",
			"description": "<p><strong>Божества:</strong> @UUID[Compendium.pf2e.deities.jrPmEfubRDzMKbxl]{Арундхат}, @UUID[Compendium.pf2e.deities.R0DvoLO8WbYIYhb3]{Атрея}, @UUID[Compendium.pf2e.deities.HD7g8T8ioy1EH3M8]{Болка}, @UUID[Compendium.pf2e.deities.yiKle2URZ43KYVKQ]{Чамиду}, @UUID[Compendium.pf2e.deities.McUqN13BGLTpYWCg]{Зеленый Человек}, @UUID[Compendium.pf2e.deities.EFyDjlH7XjGq7Erd]{Изида}, @UUID[Compendium.pf2e.deities.5ZIvg8CkqRMepVcX]{Корада}, @UUID[Compendium.pf2e.deities.nuvfUC4TcOvFbKxx]{Осирис}, @UUID[Compendium.pf2e.deities.QZD0u1jxwz0kj8uI]{Фаразма}, @UUID[Compendium.pf2e.deities.giAsBYiL2omr0x2L]{Ци Чжун}, @UUID[Compendium.pf2e.deities.BNycwu3I21dTh4D9]{Саренрэй}, @UUID[Compendium.pf2e.deities.0nQItOlce5ua6Eaf]{Сехмет}, @UUID[Compendium.pf2e.deities.xTD0XFaguBX6QQ2L]{Селкет}, @UUID[Compendium.pf2e.deities.ra7mnjAZcEuJxI37]{Шей}, @UUID[Compendium.pf2e.deities.fTs56epghXwclPcX]{Оленья Мать Леса Камней}, @UUID[Compendium.pf2e.deities.0R2BjVb7d9tYCIbk]{Тлехар}, @UUID[Compendium.pf2e.deities.w4fDrwL8VIqJDPfR]{Увуко}, @UUID[Compendium.pf2e.deities.smGfeOk8Jgcz0Qkv]{Immonhiel}</p>\n<p><strong>Пантеоны:</strong> <em>@UUID[Compendium.pf2e.deities.6nq25AjImkT5GxDT]{Призменный луч}</em>, <em>@UUID[Compendium.pf2e.deities.ZynnoQJFz12FD0Xn]{Обереги Фараона}</em>, @UUID[Compendium.pf2e.deities.LGOkWwN6AZhLiZpl]{Касание солнца}</p>\n<p><strong>Доменное заклинание:</strong> <em>@UUID[Compendium.pf2e.spells-srd.rhJyqB9g3ziImQgM]{Благословение целителя}</em>; <strong>Продвинутое доменное заклинание:</strong> <em>@UUID[Compendium.pf2e.spells-srd.4nHYSMHito1GUXlm]{Упрекнуть смерть}</em></p>\n<p>Ваша исцеляющая магия особенно сильна.</p>"
		},
		"Indulgence Domain": {
			"name": "Потворство",
			"description": "<p><strong>Божества:</strong> <em>@UUID[Compendium.pf2e.deities.cHAbE86pto5bvIWo]{Ангажан}</em>, @UUID[Compendium.pf2e.deities.aj4ChTlDcZCmrtJD]{Бафомет}, @UUID[Compendium.pf2e.deities.v67fHklTZ6LoU54q]{Кайдэн Кайлин}, @UUID[Compendium.pf2e.deities.RUzMtIQal0drPwQY]{Гогунта}, @UUID[Compendium.pf2e.deities.K1tzUClsozKcdpIe]{Халкамора}, @UUID[Compendium.pf2e.deities.DEKKbg6riAdL2ARf]{Хэй Фэн}, @UUID[Compendium.pf2e.deities.V5PbbkZUP9N7kl6h]{Кабрири}, @UUID[Compendium.pf2e.deities.ItYptsfjV8XvfhOV]{Лахъя}, @UUID[Compendium.pf2e.deities.0nQItOlce5ua6Eaf]{Сехмет}, @UUID[Compendium.pf2e.deities.BLNXYqvzmLgjMq2p]{Сунь Укун}, @UUID[Compendium.pf2e.deities.pVQzTL5elNTxvffu]{Зеленая Мать}, @UUID[Compendium.pf2e.deities.22n3N47sqbqbDxbp]{Ургатоа}, @UUID[Compendium.pf2e.deities.4bEPoujxhYdUyUOg]{Идерсий}, @UUID[Compendium.pf2e.deities.8ZSywyo8YQPduo92]{Зура}</p>\n<p><strong>Доменное заклинание:</strong> <em>@UUID[Compendium.pf2e.spells-srd.mFHQ2u4LWiejqKQG]{Переедание}</em>; <strong>Продвинутое доменное заклинание:</strong> <em>@UUID[Compendium.pf2e.spells-srd.ZeHeNQ5BNq6m5F1j]{Идти своим чередом}</em></p>\n<p>Вы пируете с размахом и можете избавиться от эффектов когда перебрали.</p>"
		},
		"Knowledge Domain": {
			"name": "Знания",
			"description": "<p><strong>Божества:</strong> @UUID[Compendium.pf2e.deities.bLI1JMpI2GXQT5AC]{Абраксас}, @UUID[Compendium.pf2e.deities.CDkr6eXR1lgu7g6A]{Андолетта}, @UUID[Compendium.pf2e.deities.UUcAqU3KeJSMNxGF]{Барзак}, @UUID[Compendium.pf2e.deities.vEMCpm7iidycRT5D]{Брай}, @UUID[Compendium.pf2e.deities.soiVh53y9RAeSLEk]{Касандали}, @UUID[Compendium.pf2e.deities.tcXrtRYCOr2EmgGB]{Харон}, @UUID[Compendium.pf2e.deities.dcbf3pBSNa2q1Kkq]{Дхалавей}, @UUID[Compendium.pf2e.deities.oyp2E685VsQFKMXi]{Дрангвит}, @UUID[Compendium.pf2e.deities.8DXel4AvpyUy6oJ0]{Эритрайс}, @UUID[Compendium.pf2e.deities.xxUGdZYUj5IW7E0L]{Последователи судьбы}, @UUID[Compendium.pf2e.deities.tcvobm8O84qv0aO5]{Грухаста}, @UUID[Compendium.pf2e.deities.qqqrbq4uCrelQvgH]{Ирори}, @UUID[Compendium.pf2e.deities.V5PbbkZUP9N7kl6h]{Кабрири}, @UUID[Compendium.pf2e.deities.zhPhYge7VJbIlJvA]{Колс}, @UUID[Compendium.pf2e.deities.xu05XGotyT5st56H]{Госпожа Цзинси}, @UUID[Compendium.pf2e.deities.lUFMwdv1UOyzFhIM]{Ликха}, @UUID[Compendium.pf2e.deities.ArmPZQrl0SFAKvrY]{Маат}, @UUID[Compendium.pf2e.deities.iMRXc519Uepf8yH3]{Магд}, @UUID[Compendium.pf2e.deities.KWVdoAm3b01M8Lcp]{Мефистофель}, @UUID[Compendium.pf2e.deities.W4QGkdn9V5ACRpkh]{Монада}, @UUID[Compendium.pf2e.deities.65o189p2eUPbqaDK]{Наррисеминек}, @UUID[Compendium.pf2e.deities.9EKyWmjLUu42evxC]{Нефис}, @UUID[Compendium.pf2e.deities.RzTd9PmgnfHNlFVf]{Энг}, @UUID[Compendium.pf2e.deities.iKgERiIc8rt3fatf]{Ньярлатотеп (Обитающий во Мраке)}, @UUID[Compendium.pf2e.deities.3nxIpMGeCvcBIVov]{Ньярлатотеп (Ползучий хаос)}, @UUID[Compendium.pf2e.deities.JgDqFUB1NtQkGmzp]{Отолмэнс}, @UUID[Compendium.pf2e.deities.QZD0u1jxwz0kj8uI]{Фаразма}, @UUID[Compendium.pf2e.deities.giAsBYiL2omr0x2L]{Ци Чжун}, @UUID[Compendium.pf2e.deities.u3YfcJh1C4w6n75j]{Ромия}, @UUID[Compendium.pf2e.deities.1xHnoMlCyCV70TnT]{Салок}, @UUID[Compendium.pf2e.deities.HbuynQRCjGKtbhcC]{Потерянный Принц}, @UUID[Compendium.pf2e.deities.9FWBJcADLEeP8Krf]{Вальмаллос}, @UUID[Compendium.pf2e.deities.8wOAwLMgB1HFLo9n]{Уинлэс}, @UUID[Compendium.pf2e.deities.iEt6idGIEPXY2HzV]{Идаджиск}, @UUID[Compendium.pf2e.deities.SUaGdvQXxSAQAw03]{Йог-Сотот}, @UUID[Compendium.pf2e.deities.uYpxTi4byHc5w78R]{Юльрал}, @UUID[Compendium.pf2e.deities.SCGdJmm7Wzle9jFP]{Зольс}, @UUID[Compendium.pf2e.deities.v1fsLP6nTkiy5ghB]{Мазлюдэ}, @UUID[Compendium.pf2e.deities.9vcKBv8h5vugb8lL]{Fandarra}, @UUID[Compendium.pf2e.deities.30uY6NkhYmPI3Oii]{Bergelmir}</p>\n<p><strong>Пантеоны:</strong> @UUID[Compendium.pf2e.deities.ZynnoQJFz12FD0Xn]{Обереги Фараона}, @UUID[Compendium.pf2e.deities.WO9UsCY41oTtC2G0]{Столпы знаний}</p>\n<p><strong>Доменное заклинание:</strong> <em>@UUID[Compendium.pf2e.spells-srd.dXIRotMLsABDQQSB]{Сосредоточенность ученого}</em>; <strong>Продвинутое доменное заклинание:</strong> <em>@UUID[Compendium.pf2e.spells-srd.l6zjNysNedpJcmDT]{Знай своего врага}</em></p>\n<p>Вы получаете божественные провидения.</p>"
		},
		"Lightning Domain": {
			"name": "Молния",
			"description": "<p><strong>Божества:</strong> <em>@UUID[Compendium.pf2e.deities.soiVh53y9RAeSLEk]{Касандали}</em>, @UUID[Compendium.pf2e.deities.EE8sNM4JraOPN669]{Кернунн}, @UUID[Compendium.pf2e.deities.yiKle2URZ43KYVKQ]{Чамиду}, <em>@UUID[Compendium.pf2e.deities.swwwP7eVmlNuWTb7]{Гозрей}</em>, @UUID[Compendium.pf2e.deities.DEKKbg6riAdL2ARf]{Хэй Фэн}, @UUID[Compendium.pf2e.deities.Ij1KRM8ufkEjGnR3]{Рангинори}, @UUID[Compendium.pf2e.deities.CnDEoo6WruQCXo1o]{Любайко}</p>\n<p><strong>Пантеоны:</strong> <em>@UUID[Compendium.pf2e.deities.yIfdsL1788boOOYk]{Хранители неба}</em></p>\n<p><strong>Доменное заклинание:</strong> <em>@UUID[Compendium.pf2e.spells-srd.g1eY1vN44mgluE33]{Заряженное копье}</em>; <strong>Продвинутое доменное заклинание:</strong> <em>@UUID[Compendium.pf2e.spells-srd.VUwpDY4Z91s9QCg0]{Сдерживаемый шторм}</em></p>\n<p>Вы управляете громом, электричеством и бурями.</p>"
		},
		"Luck Domain": {
			"name": "Везение",
			"description": "<p><strong>Божества:</strong> @UUID[Compendium.pf2e.deities.eyGEoggFlTEUQmvJ]{Бэс}, @UUID[Compendium.pf2e.deities.JgqH3BhuEuA4Zyqs]{Дезна}, @UUID[Compendium.pf2e.deities.3ffVxwgtvR1imHm8]{Гендовин}, @UUID[Compendium.pf2e.deities.K1tzUClsozKcdpIe]{Халкамора}, @UUID[Compendium.pf2e.deities.lSciGZGcbU9PJxQy]{Ирэз}, @UUID[Compendium.pf2e.deities.AIcDyoff265z9285]{Кофусачи}, @UUID[Compendium.pf2e.deities.MbJ93Nw39h2cBYi5]{Лао Шу По}, @UUID[Compendium.pf2e.deities.Mv6uTJLh3VGEoGLH]{Ниви Ромбодазл}</p>\n<p><strong>Доменное заклинание:</strong> <em>@UUID[Compendium.pf2e.spells-srd.Fr2CGvWcgSyLcUi7]{Чуть-чуть удачи}</em>; <strong>Продвинутое доменное заклинание:</strong> <em>@UUID[Compendium.pf2e.spells-srd.7OwZHalOdRCRnFmZ]{Счастливый случай}</em></p>\n<p>Вы неестественно удачливы и держитесь подальше от неприятностей.</p>"
		},
		"Magic Domain": {
			"name": "Магия",
			"description": "<p><strong>Божества:</strong> @UUID[Compendium.pf2e.deities.bLI1JMpI2GXQT5AC]{Абраксас}, @UUID[Compendium.pf2e.deities.9n2CI0B3EA4y3BuU]{Альсета}, @UUID[Compendium.pf2e.deities.jrPmEfubRDzMKbxl]{Арундхат}, @UUID[Compendium.pf2e.deities.9WD0hbUT0IbnuTiM]{Вельзевул}, @UUID[Compendium.pf2e.deities.oiEo6tDP3gICHtfZ]{Барбатос}, @UUID[Compendium.pf2e.deities.lSciGZGcbU9PJxQy]{Ирэз}, @UUID[Compendium.pf2e.deities.EFyDjlH7XjGq7Erd]{Изида}, @UUID[Compendium.pf2e.deities.5ZIvg8CkqRMepVcX]{Корада}, @UUID[Compendium.pf2e.deities.w66gCNiZ7dslqG8K]{Лиссала}, @UUID[Compendium.pf2e.deities.gsFaxWHbZmc1moY6]{Налинивати}, @UUID[Compendium.pf2e.deities.9EKyWmjLUu42evxC]{Нефис}, @UUID[Compendium.pf2e.deities.RzTd9PmgnfHNlFVf]{Энг}, @UUID[Compendium.pf2e.deities.3nxIpMGeCvcBIVov]{Ньярлатотеп (Ползучий хаос)}, @UUID[Compendium.pf2e.deities.giAsBYiL2omr0x2L]{Ци Чжун}, @UUID[Compendium.pf2e.deities.xTD0XFaguBX6QQ2L]{Селкет}, @UUID[Compendium.pf2e.deities.iJyhAFmHOLZBvWnJ]{Сивана}, @UUID[Compendium.pf2e.deities.vnmoAGURp8oWCY6R]{Соралион}, @UUID[Compendium.pf2e.deities.22n3N47sqbqbDxbp]{Ургатоа}, @UUID[Compendium.pf2e.deities.9FWBJcADLEeP8Krf]{Вальмаллос}, @UUID[Compendium.pf2e.deities.uYpxTi4byHc5w78R]{Юльрал}, @UUID[Compendium.pf2e.deities.b7H379HnCOv9UZtd]{Оркус}</p>\n<p><strong>Пантеоны:</strong> @UUID[Compendium.pf2e.deities.Zw8nhcpRxinoYRSa]{Эльфийский пантеон}, @UUID[Compendium.pf2e.deities.ZynnoQJFz12FD0Xn]{Обереги Фараона}</p>\n<p><strong>Доменное заклинание:</strong> <em>@UUID[Compendium.pf2e.spells-srd.u4FGIUQgruLjml7J]{Сосуд магии}</em>; <strong>Продвинутое доменное заклинание:</strong> <em>@UUID[Compendium.pf2e.spells-srd.2SYq0ZTsOtJEigFx]{Таинственный маяк}</em></p>\n<p>Вы совершаете неожиданное и необъяснимое.</p>"
		},
		"Might Domain": {
			"name": "Мощь",
			"description": "<p><strong>Божества:</strong> @UUID[Compendium.pf2e.deities.51kMMWaT6CqpGlGk]{Ачакек}, @UUID[Compendium.pf2e.deities.uXkMGx0OD896ZQlT]{Альгленвейс}, @UUID[Compendium.pf2e.deities.cHAbE86pto5bvIWo]{Ангажан}, @UUID[Compendium.pf2e.deities.RbslST0RZPXj6Eby]{Ашухарма}, @UUID[Compendium.pf2e.deities.aChBtIDfA59QQ7SN]{Айрзул}, @UUID[Compendium.pf2e.deities.aj4ChTlDcZCmrtJD]{Бафомет}, @UUID[Compendium.pf2e.deities.v67fHklTZ6LoU54q]{Кайдэн Кайлин}, @UUID[Compendium.pf2e.deities.oyp2E685VsQFKMXi]{Дрангвит}, @UUID[Compendium.pf2e.deities.aVyxfqY9GBjTqQul]{Эйсет}, @UUID[Compendium.pf2e.deities.IXLzDSMGndFb5rGY]{Фалэйна}, @UUID[Compendium.pf2e.deities.Zi1UARhode3FSFLr]{Генерал Сусуму}, @UUID[Compendium.pf2e.deities.WOiSJ4IWjaRsSgRO]{Герион}, @UUID[Compendium.pf2e.deities.RUzMtIQal0drPwQY]{Гогунта}, @UUID[Compendium.pf2e.deities.88vRw2ZVPax4hhga]{Горум}, @UUID[Compendium.pf2e.deities.McUqN13BGLTpYWCg]{Зеленый Человек}, @UUID[Compendium.pf2e.deities.VvxEvEKhCGRwrMJp]{Имбрекс}, @UUID[Compendium.pf2e.deities.eErEiVmBqltYXFJ6]{Айомедэй}, @UUID[Compendium.pf2e.deities.qqqrbq4uCrelQvgH]{Ирори}, @UUID[Compendium.pf2e.deities.aLCfEgt48SRUHnMC]{Джайди}, @UUID[Compendium.pf2e.deities.iXvyp9rGnqvFfy4q]{Казутал}, @UUID[Compendium.pf2e.deities.zhPhYge7VJbIlJvA]{Колс}, @UUID[Compendium.pf2e.deities.JcIf4uwKLxEWdplI]{Кощиччи}, @UUID[Compendium.pf2e.deities.r5vooG7NfvA9prJK]{Курджесс}, @UUID[Compendium.pf2e.deities.aipkJQxP4GBsTaGq]{Ламашту}, @UUID[Compendium.pf2e.deities.g1VxllMjs2YRIJAm]{Молох}, @UUID[Compendium.pf2e.deities.o9tK1T28LNEVzpFV]{Рагдья}, @UUID[Compendium.pf2e.deities.u3YfcJh1C4w6n75j]{Ромия}, @UUID[Compendium.pf2e.deities.0nQItOlce5ua6Eaf]{Сехмет}, @UUID[Compendium.pf2e.deities.TvxsVRztDlGcWpcI]{Собек}, @UUID[Compendium.pf2e.deities.BLNXYqvzmLgjMq2p]{Сунь Укун}, @UUID[Compendium.pf2e.deities.rDTXcBJ8LyqA2TkL]{Зуриэль}, @UUID[Compendium.pf2e.deities.N8a76dkGfUvxvSW0]{Трудд}, @UUID[Compendium.pf2e.deities.22n3N47sqbqbDxbp]{Ургатоа}, @UUID[Compendium.pf2e.deities.tb0oADxOoMhyrYRA]{Ямацуми}, @UUID[Compendium.pf2e.deities.4bEPoujxhYdUyUOg]{Идерсий}, @UUID[Compendium.pf2e.deities.8roijlQ03l9rWFFe]{Зевгавизеб}, @UUID[Compendium.pf2e.deities.1fmTXGRPa8fLXZKL]{Балумбдар}, @UUID[Compendium.pf2e.deities.b7H379HnCOv9UZtd]{Оркус}</p>\n<p><strong>Пантеоны:</strong> @UUID[Compendium.pf2e.deities.y3RlZ3FnbZN8wv8j]{Демононосцы}, @UUID[Compendium.pf2e.deities.KPrtgoIcgiBSKzS3]{Освобождающее пламя}</p>\n<p><strong>Доменное заклинание:</strong> <em>@UUID[Compendium.pf2e.spells-srd.UGJzJRJDoonfWqqI]{Атлетическое стремление}</em>; <strong>Продвинутое доменное заклинание:</strong> <em>@UUID[Compendium.pf2e.spells-srd.eG1fBodYwolaXK98]{Несокрушимая мощь}</em></p>\n<p>Ваша физическая сила подкрепляется божественной силой.</p>"
		},
		"Moon Domain": {
			"name": "Луна",
			"description": "<p><strong>Божества:</strong> @UUID[Compendium.pf2e.deities.DJ7LDFTtns6YFodT]{Ашава}, @UUID[Compendium.pf2e.deities.JgqH3BhuEuA4Zyqs]{Дезна}, @UUID[Compendium.pf2e.deities.liXIbl7y8www2eAn]{Финделадлара}, @UUID[Compendium.pf2e.deities.rRuxBgC58PxrLzRv]{Гор}, @UUID[Compendium.pf2e.deities.wjXNXFWBLbJaeZQR]{Кетефис}, @UUID[Compendium.pf2e.deities.aievwuZalZ2abs2q]{Тот}, @UUID[Compendium.pf2e.deities.aTYy1WHwAZiuei4h]{Цукио}</p>\n<p><strong>Пантеоны:</strong> @UUID[Compendium.pf2e.deities.Zw8nhcpRxinoYRSa]{Эльфийский пантеон}, @UUID[Compendium.pf2e.deities.oV5cnlPJQS8JfMIg]{Космический караван}, @UUID[Compendium.pf2e.deities.VG51y4FbTLdeGHZB]{Путь Небес}, @UUID[Compendium.pf2e.deities.6nq25AjImkT5GxDT]{Призменный луч}</p>\n<p><strong>Доменное заклинание:</strong> <em>@UUID[Compendium.pf2e.spells-srd.SuBtUJiU6DbSJYIw]{Лунный луч}</em>; <strong>Продвинутое доменное заклинание:</strong> <em>@UUID[Compendium.pf2e.spells-srd.oXCwHBeDja4e0Mx0]{Касание луны}</em></p>\n<p>Вы управляете силами связанными с луной.</p>"
		},
		"Naga Domain": {
			"name": "Нага",
			"description": "<p><strong>Божества:</strong> @UUID[Compendium.pf2e.deities.1nQVLOyWv5kC0bCU]{Равитра}</p>\n<p><strong>Доменное заклинание:</strong> <em>@UUID[Compendium.pf2e.spells-srd.lXxP1ziyf4ozkpmv]{Разделение языка}</em>; <strong>Продвинутое доменное заклинание:</strong> <em>@UUID[Compendium.pf2e.spells-srd.CPNlhDQP3aDmLzB3]{Предопределенная цель}</em></p>\n<p>Вы находитесь в гармонии с космическими силами, как змееподобные наги, которыми когда-то управляла @UUID[Compendium.pf2e.deities.1nQVLOyWv5kC0bCU]{Равитра}.</p>"
		},
		"Nature Domain": {
			"name": "Природа",
			"description": "<p><strong>Божества:</strong> @UUID[Compendium.pf2e.deities.cHAbE86pto5bvIWo]{Ангажан}, @UUID[Compendium.pf2e.deities.jrPmEfubRDzMKbxl]{Арундхат}, @UUID[Compendium.pf2e.deities.oiEo6tDP3gICHtfZ]{Барбатос}, @UUID[Compendium.pf2e.deities.zRmAXj7FSlrMfDeA]{Бастет}, @UUID[Compendium.pf2e.deities.EE8sNM4JraOPN669]{Кернунн}, @UUID[Compendium.pf2e.deities.yiKle2URZ43KYVKQ]{Чамиду}, @UUID[Compendium.pf2e.deities.gXHoxuuiAD54LnWV]{Сит-Ви'заг}, @UUID[Compendium.pf2e.deities.M3eb94Nd6uXti2IK]{Дайкицу}, @UUID[Compendium.pf2e.deities.mm1j6UbHqFCI8fwB]{Эрастил}, @UUID[Compendium.pf2e.deities.3ffVxwgtvR1imHm8]{Гендовин}, @UUID[Compendium.pf2e.deities.swwwP7eVmlNuWTb7]{Гозрей}, @UUID[Compendium.pf2e.deities.McUqN13BGLTpYWCg]{Зеленый Человек}, <em>@UUID[Compendium.pf2e.deities.tcvobm8O84qv0aO5]{Грухаста}</em>, @UUID[Compendium.pf2e.deities.K1tzUClsozKcdpIe]{Халкамора}, @UUID[Compendium.pf2e.deities.aLCfEgt48SRUHnMC]{Джайди}, @UUID[Compendium.pf2e.deities.wjXNXFWBLbJaeZQR]{Кетефис}, @UUID[Compendium.pf2e.deities.ItYptsfjV8XvfhOV]{Лахъя}, @UUID[Compendium.pf2e.deities.SCMlQDcoU1QcF3AS]{Лисианасса}, @UUID[Compendium.pf2e.deities.hWTTS0e7J9hJfsp3]{Матраваш}, @UUID[Compendium.pf2e.deities.E1dUhoSEf2XfklU2]{Мать-Стервятник}, @UUID[Compendium.pf2e.deities.8Oy4qHylOOp79JxD]{Нимбалот}, @UUID[Compendium.pf2e.deities.nuvfUC4TcOvFbKxx]{Осирис}, @UUID[Compendium.pf2e.deities.woDEgBs1MznhzpJ4]{Ра}, @UUID[Compendium.pf2e.deities.xTD0XFaguBX6QQ2L]{Селкет}, @UUID[Compendium.pf2e.deities.fTs56epghXwclPcX]{Оленья Мать Леса Камней}, @UUID[Compendium.pf2e.deities.BLNXYqvzmLgjMq2p]{Сунь Укун}, @UUID[Compendium.pf2e.deities.DFxbPmQLOqcmbPTz]{Танагаар}, @UUID[Compendium.pf2e.deities.pVQzTL5elNTxvffu]{Зеленая Мать}, @UUID[Compendium.pf2e.deities.ENzMYuzBZGIujSMx]{Древотес}, @UUID[Compendium.pf2e.deities.mebdNVKeKuTmDDHj]{Жамен-Дор}, @UUID[Compendium.pf2e.deities.YXmeBdOZfWgUljW1]{Илиманча}, @UUID[Compendium.pf2e.deities.8roijlQ03l9rWFFe]{Зевгавизеб}, @UUID[Compendium.pf2e.deities.1fmTXGRPa8fLXZKL]{Балумбдар}, @UUID[Compendium.pf2e.deities.kiTcZxmKxGPCwDpg]{Калькот}, <em>@UUID[Compendium.pf2e.deities.v1fsLP6nTkiy5ghB]{Мазлюдэ}</em>, @UUID[Compendium.pf2e.deities.9vcKBv8h5vugb8lL]{Fandarra}, @UUID[Compendium.pf2e.deities.smGfeOk8Jgcz0Qkv]{Immonhiel}, @UUID[Compendium.pf2e.deities.44fcXgp3fnkoyb4R]{Rowdrosh}</p>\n<p><strong>Пантеоны:</strong> @UUID[Compendium.pf2e.deities.Zw8nhcpRxinoYRSa]{Эльфийский пантеон}</p>\n<p><strong>Доменное заклинание:</strong> <em>@UUID[Compendium.pf2e.spells-srd.nnSipUPNd3sm5vYL]{Живучие шипы}</em>; <strong>Продвинутое доменное заклинание:</strong> <em>@UUID[Compendium.pf2e.spells-srd.vSSKyUdrHu86E5Gk]{Дар природы}</em></p>\n<p>Вы обладаете властью над животными и растениями.</p>"
		},
		"Nightmares Domain": {
			"name": "Кошмары",
			"description": "<p><strong>Божества:</strong> @UUID[Compendium.pf2e.deities.sILda7I8Ak20Ioj9]{Азатот}, @UUID[Compendium.pf2e.deities.yiKle2URZ43KYVKQ]{Чамиду}, @UUID[Compendium.pf2e.deities.WloVxo6HXJdS4YTt]{Гротус}, @UUID[Compendium.pf2e.deities.zlJGKpeLBwajP91o]{Гиронна}, @UUID[Compendium.pf2e.deities.bF77ydtptI54STl9]{Джайдз}, @UUID[Compendium.pf2e.deities.14GLsVobnZTEmJrs]{Келизандри}, @UUID[Compendium.pf2e.deities.aipkJQxP4GBsTaGq]{Ламашту}, @UUID[Compendium.pf2e.deities.iKgERiIc8rt3fatf]{Ньярлатотеп (Обитающий во Мраке)}, @UUID[Compendium.pf2e.deities.3nxIpMGeCvcBIVov]{Ньярлатотеп (Ползучий хаос)}, @UUID[Compendium.pf2e.deities.BrbXGyzCeORNyJT5]{Сифкеш}, @UUID[Compendium.pf2e.deities.ENzMYuzBZGIujSMx]{Древотес}, @UUID[Compendium.pf2e.deities.9eltBjLngkR9x1Xm]{Трелмариксиан}, @UUID[Compendium.pf2e.deities.8ZSywyo8YQPduo92]{Зура}, @UUID[Compendium.pf2e.deities.kiTcZxmKxGPCwDpg]{Калькот}</p>\n<p><strong>Доменное заклинание:</strong> <em>@UUID[Compendium.pf2e.spells-srd.DU5daB09xwfE1y38]{Кошмар наяву}</em>; <strong>Продвинутое доменное заклинание:</strong> <em>@UUID[Compendium.pf2e.spells-srd.skvgOWNTitLehL0b]{Общий кошмар}</em></p>\n<p>Вы наполняете умы ужасом и страхом.</p>"
		},
		"Pain Domain": {
			"name": "Боль",
			"description": "<p><strong>Божества:</strong> @UUID[Compendium.pf2e.deities.HtRxo4J3elFteIqu]{Аразни}, @UUID[Compendium.pf2e.deities.AlL9GtlTldbqNoVm]{Калистрия}, @UUID[Compendium.pf2e.deities.AMFkYKUNQ3kCD0ob]{Долорас}, @UUID[Compendium.pf2e.deities.zlJGKpeLBwajP91o]{Гиронна}, @UUID[Compendium.pf2e.deities.hhV2g6aU8jKLEca1]{Наракаас}, @UUID[Compendium.pf2e.deities.zzhYFcShT9JoE2Mp]{Шакс}, @UUID[Compendium.pf2e.deities.BrbXGyzCeORNyJT5]{Сифкеш}, @UUID[Compendium.pf2e.deities.fTs56epghXwclPcX]{Оленья Мать Леса Камней}, @UUID[Compendium.pf2e.deities.y93whGnGZjFyw5A0]{Вильдейс}, @UUID[Compendium.pf2e.deities.83jKKHQPoqVylmrF]{Йечжин}, @UUID[Compendium.pf2e.deities.ZfN7jkK6boU1FuiS]{Зон-Кутон}</p>\n<p><strong>Доменное заклинание:</strong> <em>@UUID[Compendium.pf2e.spells-srd.xn0V2HDrmDWNzPEt]{Наслаждение болью}</em>; <strong>Продвинутое доменное заклинание:</strong> <em>@UUID[Compendium.pf2e.spells-srd.SSsUC7rZo0CwayPn]{Карающая боль}</em></p>\n<p>Вы наказываете тех, кто вам не нравится, пронизывающей болью.</p>"
		},
		"Passion Domain": {
			"name": "Страсть",
			"description": "<p><strong>Божества:</strong> @UUID[Compendium.pf2e.deities.uydTiyN5AzhBnQY8]{Ардад Лили}, @UUID[Compendium.pf2e.deities.KDFujU3Yug6AwCOz]{Аршей}, @UUID[Compendium.pf2e.deities.zRmAXj7FSlrMfDeA]{Бастет}, @UUID[Compendium.pf2e.deities.remyY1BwhEVmBwya]{Белиал}, @UUID[Compendium.pf2e.deities.HD7g8T8ioy1EH3M8]{Болка}, @UUID[Compendium.pf2e.deities.AlL9GtlTldbqNoVm]{Калистрия}, @UUID[Compendium.pf2e.deities.EE8sNM4JraOPN669]{Кернунн}, @UUID[Compendium.pf2e.deities.TpAMy8tb5LrRgvqN]{Хатхор}, @UUID[Compendium.pf2e.deities.EFyDjlH7XjGq7Erd]{Изида}, @UUID[Compendium.pf2e.deities.AIcDyoff265z9285]{Кофусачи}, @UUID[Compendium.pf2e.deities.lUFMwdv1UOyzFhIM]{Ликха}, @UUID[Compendium.pf2e.deities.QibpLccM5bLUMopj]{Лимнерис}, @UUID[Compendium.pf2e.deities.pm8H2DbtrHM01KNV]{Надири}, @UUID[Compendium.pf2e.deities.gsFaxWHbZmc1moY6]{Налинивати}, @UUID[Compendium.pf2e.deities.gxwmzxUWBOhdgFSN]{Шелин}, @UUID[Compendium.pf2e.deities.pVQzTL5elNTxvffu]{Зеленая Мать}, @UUID[Compendium.pf2e.deities.nuqIimigyt986WLE]{Король Фонарей}, @UUID[Compendium.pf2e.deities.0R2BjVb7d9tYCIbk]{Тлехар}</p>\n<p><strong>Пантеоны:</strong> @UUID[Compendium.pf2e.deities.LGOkWwN6AZhLiZpl]{Касание солнца}</p>\n<p><strong>Доменное заклинание:</strong> <em>@UUID[Compendium.pf2e.spells-srd.ut9IhJ9jSZSHDUop]{Очаровывающее касание}</em>; <strong>Продвинутое доменное заклинание:</strong> <em>@UUID[Compendium.pf2e.spells-srd.jJphHQlENHFlSElH]{Пленительное обожание}</em></p>\n<p>Вы пробуждаете страсть, будь то любовь или похоть.</p>"
		},
		"Perfection Domain": {
			"name": "Совершенство",
			"description": "<p><strong>Божества:</strong> @UUID[Compendium.pf2e.deities.KDFujU3Yug6AwCOz]{Аршей}, @UUID[Compendium.pf2e.deities.soiVh53y9RAeSLEk]{Касандали}, @UUID[Compendium.pf2e.deities.tcvobm8O84qv0aO5]{Грухаста}, @UUID[Compendium.pf2e.deities.qqqrbq4uCrelQvgH]{Ирори}, @UUID[Compendium.pf2e.deities.65o189p2eUPbqaDK]{Наррисеминек}, @UUID[Compendium.pf2e.deities.JgDqFUB1NtQkGmzp]{Отолмэнс}, @UUID[Compendium.pf2e.deities.o9tK1T28LNEVzpFV]{Рагдья}, @UUID[Compendium.pf2e.deities.ra7mnjAZcEuJxI37]{Шей}, @UUID[Compendium.pf2e.deities.s9opv94lGDRKnw6W]{Шицуру}, @UUID[Compendium.pf2e.deities.1fmTXGRPa8fLXZKL]{Балумбдар}, @UUID[Compendium.pf2e.deities.v1fsLP6nTkiy5ghB]{Мазлюдэ}</p>\n<p><strong>Пантеоны:</strong> @UUID[Compendium.pf2e.deities.JndhOIHnQoMwnsw3]{Божественная десница}, <em>@UUID[Compendium.pf2e.deities.WO9UsCY41oTtC2G0]{Столпы знаний}</em></p>\n<p><strong>Доменное заклинание:</strong> <em>@UUID[Compendium.pf2e.spells-srd.cDFAQN7Z3es07WSA]{Совершенный разум}</em>; <strong>Продвинутое доменное заклинание:</strong> <em>@UUID[Compendium.pf2e.spells-srd.8ifpNZkaxrbs3dBJ]{Совершенная форма}</em></p>\n<p>Вы стремитесь совершенствовать свой разум, тело и дух.</p>"
		},
		"Plague Domain": {
			"name": "Мор",
			"description": "<p><strong>Божества:</strong> @UUID[Compendium.pf2e.deities.oJPwMa9xG8oMnC14]{Аполлион}, @UUID[Compendium.pf2e.deities.gXHoxuuiAD54LnWV]{Сит-Ви'заг}, @UUID[Compendium.pf2e.deities.oRvuLq3o2FxXizt9]{Глондер}, @UUID[Compendium.pf2e.deities.r6SFB1PzKsagDXff]{Госпожа Наньбо}, <em>@UUID[Compendium.pf2e.deities.22n3N47sqbqbDxbp]{Ургатоа}</em></p>\n<p><strong>Доменное заклинание:</strong> <em>@UUID[Compendium.pf2e.spells-srd.NkeLctXo9FLGnDhi]{Божественные язвы}</em>; <strong>Продвинутое доменное заклинание:</strong> <em>@UUID[Compendium.pf2e.spells-srd.6nTBr5XNuKOuPM5m]{Вредные испарения}</em></p>\n<p>Вы владеете болезнями и чумой, как оружием.</p>"
		},
		"Protection Domain": {
			"name": "Защита",
			"description": "<p><strong>Божества:</strong> @UUID[Compendium.pf2e.deities.9n2CI0B3EA4y3BuU]{Альсета}, @UUID[Compendium.pf2e.deities.CDkr6eXR1lgu7g6A]{Андолетта}, @UUID[Compendium.pf2e.deities.Xb1N5YfxboJH26Jh]{Ангред}, @UUID[Compendium.pf2e.deities.5YUNikBpJZ596MRD]{Анубис}, @UUID[Compendium.pf2e.deities.o8ayCv3LAHWlu0vQ]{Апсу}, @UUID[Compendium.pf2e.deities.HtRxo4J3elFteIqu]{Аразни}, @UUID[Compendium.pf2e.deities.jrPmEfubRDzMKbxl]{Арундхат}, @UUID[Compendium.pf2e.deities.RbslST0RZPXj6Eby]{Ашухарма}, @UUID[Compendium.pf2e.deities.R0DvoLO8WbYIYhb3]{Атрея}, @UUID[Compendium.pf2e.deities.zRmAXj7FSlrMfDeA]{Бастет}, @UUID[Compendium.pf2e.deities.eyGEoggFlTEUQmvJ]{Бэс}, @UUID[Compendium.pf2e.deities.VEyowuhC4FsBnG8c]{Фолгрит}, @UUID[Compendium.pf2e.deities.McUqN13BGLTpYWCg]{Зеленый Человек}, @UUID[Compendium.pf2e.deities.tk7gRxXsqvBwQrUF]{Грундиннар}, @UUID[Compendium.pf2e.deities.rRuxBgC58PxrLzRv]{Гор}, @UUID[Compendium.pf2e.deities.bF77ydtptI54STl9]{Джайдз}, @UUID[Compendium.pf2e.deities.iXvyp9rGnqvFfy4q]{Казутал}, @UUID[Compendium.pf2e.deities.5ZIvg8CkqRMepVcX]{Корада}, @UUID[Compendium.pf2e.deities.QibpLccM5bLUMopj]{Лимнерис}, @UUID[Compendium.pf2e.deities.ArmPZQrl0SFAKvrY]{Маат}, @UUID[Compendium.pf2e.deities.9EKyWmjLUu42evxC]{Нефис}, @UUID[Compendium.pf2e.deities.giAsBYiL2omr0x2L]{Ци Чжун}, @UUID[Compendium.pf2e.deities.xTD0XFaguBX6QQ2L]{Селкет}, @UUID[Compendium.pf2e.deities.gxwmzxUWBOhdgFSN]{Шелин}, @UUID[Compendium.pf2e.deities.TvxsVRztDlGcWpcI]{Собек}, @UUID[Compendium.pf2e.deities.vnmoAGURp8oWCY6R]{Соралион}, @UUID[Compendium.pf2e.deities.sZrdzh0ANQnZGXJb]{Тораг}, @UUID[Compendium.pf2e.deities.N8a76dkGfUvxvSW0]{Трудд}, @UUID[Compendium.pf2e.deities.GUmYLD7PGmE2TOx6]{Уаджит}, @UUID[Compendium.pf2e.deities.8wOAwLMgB1HFLo9n]{Уинлэс}, @UUID[Compendium.pf2e.deities.gutbzYTZvRTnq4on]{Аданьи}, @UUID[Compendium.pf2e.deities.1fmTXGRPa8fLXZKL]{Балумбдар}, @UUID[Compendium.pf2e.deities.IK2AL3bL6htrrnnC]{Skode}, @UUID[Compendium.pf2e.deities.44fcXgp3fnkoyb4R]{Rowdrosh}</p>\n<p><strong>Пантеоны:</strong> @UUID[Compendium.pf2e.deities.6mgCX7lvKtaEYoa9]{Дварфийский пантеон}, @UUID[Compendium.pf2e.deities.JndhOIHnQoMwnsw3]{Божественная десница}, @UUID[Compendium.pf2e.deities.6nq25AjImkT5GxDT]{Призменный луч}, @UUID[Compendium.pf2e.deities.ZynnoQJFz12FD0Xn]{Обереги Фараона}, @UUID[Compendium.pf2e.deities.y3RlZ3FnbZN8wv8j]{Демононосцы}, @UUID[Compendium.pf2e.deities.KPrtgoIcgiBSKzS3]{Освобождающее пламя}, @UUID[Compendium.pf2e.deities.yIfdsL1788boOOYk]{Хранители неба}</p>\n<p><strong>Доменное заклинание:</strong> <em>@UUID[Compendium.pf2e.spells-srd.rQYob0QMJ0I1U2sU]{Жертва защитника}</em>; <strong>Продвинутое доменное заклинание:</strong> <em>@UUID[Compendium.pf2e.spells-srd.DH9Y3RQGWO0GzXGU]{Сфера защитника}</em></p>\n<p>Вы защищаете других и себя.</p>"
		},
		"Repose Domain": {
			"name": "Покой",
			"description": "<p><strong>Божества:</strong> @UUID[Compendium.pf2e.deities.DJ7LDFTtns6YFodT]{Ашава}, @UUID[Compendium.pf2e.deities.RbslST0RZPXj6Eby]{Ашухарма}, @UUID[Compendium.pf2e.deities.AMFkYKUNQ3kCD0ob]{Долорас}, @UUID[Compendium.pf2e.deities.VEyowuhC4FsBnG8c]{Фолгрит}, @UUID[Compendium.pf2e.deities.xu05XGotyT5st56H]{Госпожа Цзинси}, @UUID[Compendium.pf2e.deities.QibpLccM5bLUMopj]{Лимнерис}, <em>@UUID[Compendium.pf2e.deities.BNycwu3I21dTh4D9]{Саренрэй}</em>, <em>@UUID[Compendium.pf2e.deities.gxwmzxUWBOhdgFSN]{Шелин}</em>, @UUID[Compendium.pf2e.deities.HbuynQRCjGKtbhcC]{Потерянный Принц}, @UUID[Compendium.pf2e.deities.aTYy1WHwAZiuei4h]{Цукио}, @UUID[Compendium.pf2e.deities.gutbzYTZvRTnq4on]{Аданьи}, @UUID[Compendium.pf2e.deities.30uY6NkhYmPI3Oii]{Bergelmir}, @UUID[Compendium.pf2e.deities.smGfeOk8Jgcz0Qkv]{Immonhiel}</p>\n<p><strong>Доменное заклинание:</strong> <em>@UUID[Compendium.pf2e.spells-srd.cJq5NarY0eOZN74A]{Общее бремя}</em>; <strong>Продвинутое доменное заклинание:</strong> <em>@UUID[Compendium.pf2e.spells-srd.yY1H5zhO5dHmD8lz]{Купель безмятежности}</em></p>\n<p>Вы облегчаете психические нагрузки.</p>"
		},
		"Secrecy Domain": {
			"name": "Тайна",
			"description": "<p><strong>Божества:</strong> @UUID[Compendium.pf2e.deities.aChBtIDfA59QQ7SN]{Айрзул}, @UUID[Compendium.pf2e.deities.aj4ChTlDcZCmrtJD]{Бафомет}, @UUID[Compendium.pf2e.deities.c9NFjRR8gr6CWpjl]{Черная бабочка}, @UUID[Compendium.pf2e.deities.AlL9GtlTldbqNoVm]{Калистрия}, @UUID[Compendium.pf2e.deities.dcbf3pBSNa2q1Kkq]{Дхалавей}, @UUID[Compendium.pf2e.deities.Dm8qlzpUj7g82QFv]{Эрикьюра}, @UUID[Compendium.pf2e.deities.WvoMr86bSSYxXKtI]{Хастур}, @UUID[Compendium.pf2e.deities.wjXNXFWBLbJaeZQR]{Кетефис}, @UUID[Compendium.pf2e.deities.KWVdoAm3b01M8Lcp]{Мефистофель}, @UUID[Compendium.pf2e.deities.RzTd9PmgnfHNlFVf]{Энг}, @UUID[Compendium.pf2e.deities.GX6PF9ifR47Xyjg9]{Норгорбер}, @UUID[Compendium.pf2e.deities.iJyhAFmHOLZBvWnJ]{Сивана}, @UUID[Compendium.pf2e.deities.kiTcZxmKxGPCwDpg]{Калькот}</p>\n<p><strong>Пантеоны:</strong> @UUID[Compendium.pf2e.deities.WO9UsCY41oTtC2G0]{Столпы знаний}</p>\n<p><strong>Доменное заклинание:</strong> <em>@UUID[Compendium.pf2e.spells-srd.k43PIYwuQqjeJ3S3]{Вынужденная тишина}</em>; <strong>Продвинутое доменное заклинание:</strong> <em>@UUID[Compendium.pf2e.spells-srd.OsrtOeG0TvDNnEFH]{Сохранение тайны}</em></p>\n<p>Вы защищаете тайны и скрываете их.</p>"
		},
		"Sorrow Domain": {
			"name": "Скорбь",
			"description": "<p><strong>Божества:</strong> @UUID[Compendium.pf2e.deities.CDkr6eXR1lgu7g6A]{Андолетта}, <em>@UUID[Compendium.pf2e.deities.HtRxo4J3elFteIqu]{Аразни}</em>, @UUID[Compendium.pf2e.deities.vSUz97Y29l1O50bC]{Граф Раналк}, @UUID[Compendium.pf2e.deities.AMFkYKUNQ3kCD0ob]{Долорас}, @UUID[Compendium.pf2e.deities.lUFMwdv1UOyzFhIM]{Ликха}, @UUID[Compendium.pf2e.deities.pm8H2DbtrHM01KNV]{Надири}, @UUID[Compendium.pf2e.deities.hhV2g6aU8jKLEca1]{Наракаас}, @UUID[Compendium.pf2e.deities.Vzxm5FyIA40b2OSP]{Полура}, @UUID[Compendium.pf2e.deities.1nQVLOyWv5kC0bCU]{Равитра}, <em>@UUID[Compendium.pf2e.deities.s9opv94lGDRKnw6W]{Шицуру}</em>, @UUID[Compendium.pf2e.deities.BrbXGyzCeORNyJT5]{Сифкеш}, @UUID[Compendium.pf2e.deities.HbuynQRCjGKtbhcC]{Потерянный Принц}, @UUID[Compendium.pf2e.deities.y93whGnGZjFyw5A0]{Вильдейс}, @UUID[Compendium.pf2e.deities.LLMTMgARSTlO7S9U]{Зиф}</p>\n<p><strong>Доменное заклинание:</strong> <em>@UUID[Compendium.pf2e.spells-srd.T90ij2uu6ZaBaSXV]{Стенание}</em>; <strong>Продвинутое доменное заклинание:</strong> <em>@UUID[Compendium.pf2e.spells-srd.eCniO6INHNfc9Svr]{Переполняющая скорбь}</em></p>\n<p>У вас есть болезненная связь с меланхолией и грустью.</p>"
		},
		"Soul Domain": {
			"name": "Душа",
			"description": "<p><strong>Божества:</strong> @UUID[Compendium.pf2e.deities.uXkMGx0OD896ZQlT]{Альгленвейс}, @UUID[Compendium.pf2e.deities.5YUNikBpJZ596MRD]{Анубис}, @UUID[Compendium.pf2e.deities.DJ7LDFTtns6YFodT]{Ашава}, @UUID[Compendium.pf2e.deities.tcXrtRYCOr2EmgGB]{Харон}, <em>@UUID[Compendium.pf2e.deities.ub0PJ5QkrdoGzzb2]{Лухар}</em>, <em>@UUID[Compendium.pf2e.deities.QZD0u1jxwz0kj8uI]{Фаразма}</em>, <em>@UUID[Compendium.pf2e.deities.1nQVLOyWv5kC0bCU]{Равитра}</em>, @UUID[Compendium.pf2e.deities.aTYy1WHwAZiuei4h]{Цукио}, @UUID[Compendium.pf2e.deities.LLMTMgARSTlO7S9U]{Зиф}</p>\n<p><strong>Доменное заклинание:</strong> <em>@UUID[Compendium.pf2e.spells-srd.rVhHaWqUsVUO4GuY]{Извлечение души}</em>; <strong>Продвинутое доменное заклинание:</strong> <em>@UUID[Compendium.pf2e.spells-srd.QE9f3OxvvBThymD4]{Эктоплазматический промежуток}</em></p>\n<p>Вы обладаете властью над духовным.</p>"
		},
		"Star Domain": {
			"name": "Звезда",
			"description": "<p><strong>Божества:</strong> @UUID[Compendium.pf2e.deities.c9NFjRR8gr6CWpjl]{Черная бабочка}, <em>@UUID[Compendium.pf2e.deities.JgqH3BhuEuA4Zyqs]{Дезна}</em>, @UUID[Compendium.pf2e.deities.liXIbl7y8www2eAn]{Финделадлара}, <em>@UUID[Compendium.pf2e.deities.ub0PJ5QkrdoGzzb2]{Лухар}</em>, @UUID[Compendium.pf2e.deities.ArmPZQrl0SFAKvrY]{Маат}, @UUID[Compendium.pf2e.deities.Vzxm5FyIA40b2OSP]{Полура}</p>\n<p><strong>Пантеоны:</strong> <em>@UUID[Compendium.pf2e.deities.oV5cnlPJQS8JfMIg]{Космический караван}</em>, @UUID[Compendium.pf2e.deities.VG51y4FbTLdeGHZB]{Путь Небес}</p>\n<p><strong>Доменное заклинание:</strong> <em>@UUID[Compendium.pf2e.spells-srd.Yrek2Yd4k3DPC2zV]{Звезда в зените}</em>; <strong>Продвинутое доменное заклинание:</strong> <em>@UUID[Compendium.pf2e.spells-srd.KG7amdeXWc7MjGXe]{Астеризм}</em></p>\n<p>Вы повелеваете силой звезд.</p>"
		},
		"Sun Domain": {
			"name": "Солнце",
			"description": "<p><strong>Божества:</strong> @UUID[Compendium.pf2e.deities.R0DvoLO8WbYIYhb3]{Атрея}, @UUID[Compendium.pf2e.deities.OlVCyRgOaPJji4qt]{Чохар}, @UUID[Compendium.pf2e.deities.TpAMy8tb5LrRgvqN]{Хатхор}, @UUID[Compendium.pf2e.deities.rRuxBgC58PxrLzRv]{Гор}, @UUID[Compendium.pf2e.deities.aLCfEgt48SRUHnMC]{Джайди}, @UUID[Compendium.pf2e.deities.ub0PJ5QkrdoGzzb2]{Лухар}, @UUID[Compendium.pf2e.deities.SAuFz101iP6VVwvw]{Нургал}, @UUID[Compendium.pf2e.deities.woDEgBs1MznhzpJ4]{Ра}, @UUID[Compendium.pf2e.deities.BNycwu3I21dTh4D9]{Саренрэй}, @UUID[Compendium.pf2e.deities.s9opv94lGDRKnw6W]{Шицуру}, @UUID[Compendium.pf2e.deities.97Qe42wJN5EVUS14]{Стуровенен}, @UUID[Compendium.pf2e.deities.0R2BjVb7d9tYCIbk]{Тлехар}, @UUID[Compendium.pf2e.deities.g1AVEGi8QibhS007]{Уокена}</p>\n<p><strong>Пантеоны:</strong> @UUID[Compendium.pf2e.deities.6nq25AjImkT5GxDT]{Призменный луч}, @UUID[Compendium.pf2e.deities.LGOkWwN6AZhLiZpl]{Касание солнца}, @UUID[Compendium.pf2e.deities.VG51y4FbTLdeGHZB]{Путь Небес}</p>\n<p><strong>Доменное заклинание:</strong> <em>@UUID[Compendium.pf2e.spells-srd.zul5cBTfr7NXHBZf]{Ослепляющая вспышка}</em>; <strong>Продвинутое доменное заклинание:</strong> <em>@UUID[Compendium.pf2e.spells-srd.8XuNn0h0rHE24m3B]{Позитивное свечение}</em></p>\n<p>Вы используете силу солнца и других источников света и караете нежить.</p>"
		},
		"Swarm Domain": {
			"name": "Рой",
			"description": "<p><strong>Божества:</strong> @UUID[Compendium.pf2e.deities.oJPwMa9xG8oMnC14]{Аполлион}, @UUID[Compendium.pf2e.deities.oRvuLq3o2FxXizt9]{Глондер}, @UUID[Compendium.pf2e.deities.K1tzUClsozKcdpIe]{Халкамора}, @UUID[Compendium.pf2e.deities.ItYptsfjV8XvfhOV]{Лахъя}, @UUID[Compendium.pf2e.deities.MbJ93Nw39h2cBYi5]{Лао Шу По}, @UUID[Compendium.pf2e.deities.IZcdF1G8ZsnMotaM]{Пазузу}, <em>@UUID[Compendium.pf2e.deities.Bhxji0kxIbMKqdkw]{Ровагуг}</em>, <em>@UUID[Compendium.pf2e.deities.22n3N47sqbqbDxbp]{Ургатоа}</em></p>\n<p><strong>Доменное заклинание:</strong> <em>@UUID[Compendium.pf2e.spells-srd.5wjl0ZwEvvUh7sor]{Чувство роя}</em>; <strong>Продвинутое доменное заклинание:</strong> <em>@UUID[Compendium.pf2e.spells-srd.Pd2M1XY8EXrSfWgJ]{Форма роя}</em></p>\n<p>Вы контролируете массу существ.</p>"
		},
		"Time Domain": {
			"name": "Время",
			"description": "<p><strong>Божества:</strong> @UUID[Compendium.pf2e.deities.9n2CI0B3EA4y3BuU]{Альсета}, @UUID[Compendium.pf2e.deities.vEMCpm7iidycRT5D]{Брай}, <em>@UUID[Compendium.pf2e.deities.QZD0u1jxwz0kj8uI]{Фаразма}</em>, @UUID[Compendium.pf2e.deities.woDEgBs1MznhzpJ4]{Ра}, @UUID[Compendium.pf2e.deities.3INt1X4ijBYnZYbU]{Шайка}, @UUID[Compendium.pf2e.deities.SUaGdvQXxSAQAw03]{Йог-Сотот}</p>\n<p><strong>Пантеоны:</strong> <em>@UUID[Compendium.pf2e.deities.WO9UsCY41oTtC2G0]{Столпы знаний}</em></p>\n<p><strong>Доменное заклинание:</strong> <em>@UUID[Compendium.pf2e.spells-srd.3wmX7htzOXiHLdAn]{Отсрочка последствия}</em>; <strong>Продвинутое доменное заклинание:</strong> <em>@UUID[Compendium.pf2e.spells-srd.cOwSsSXRsBaXUvlr]{Стазис}</em></p>\n<p>Вы правите потоком времени.</p>"
		},
		"Toil Domain": {
			"name": "Труд",
			"description": "<p><strong>Божества:</strong> <em>@UUID[Compendium.pf2e.deities.OlVCyRgOaPJji4qt]{Чохар}</em>, @UUID[Compendium.pf2e.deities.39z55kowQFOUH2v0]{Дроскар}, @UUID[Compendium.pf2e.deities.w66gCNiZ7dslqG8K]{Лиссала}, @UUID[Compendium.pf2e.deities.sNjPI1iaS8Z43YJf]{Маммон}, @UUID[Compendium.pf2e.deities.1NxkZf6ndijKeufX]{Сайразул}</p>\n<p><strong>Доменное заклинание:</strong> <em>@UUID[Compendium.pf2e.spells-srd.HOj2YsTpkoMpYJH9]{Повторенье - мать ученья}</em>; <strong>Продвинутое доменное заклинание:</strong> <em>@UUID[Compendium.pf2e.spells-srd.gzvRDpM6EvcfYHeu]{Неутомимый труженик}</em></p>\n<p>Вы постоянно работаете и не позволяете ничему мешать вам.</p>"
		},
		"Travel Domain": {
			"name": "Путешествие",
			"description": "<p><strong>Божества:</strong> @UUID[Compendium.pf2e.deities.d56paSkcwvll2OhR]{Абадар}, @UUID[Compendium.pf2e.deities.o8ayCv3LAHWlu0vQ]{Апсу}, @UUID[Compendium.pf2e.deities.oiEo6tDP3gICHtfZ]{Барбатос}, @UUID[Compendium.pf2e.deities.vSUz97Y29l1O50bC]{Граф Раналк}, @UUID[Compendium.pf2e.deities.JgqH3BhuEuA4Zyqs]{Дезна}, @UUID[Compendium.pf2e.deities.oyp2E685VsQFKMXi]{Дрангвит}, @UUID[Compendium.pf2e.deities.swwwP7eVmlNuWTb7]{Гозрей}, <em>@UUID[Compendium.pf2e.deities.tcvobm8O84qv0aO5]{Грухаста}</em>, @UUID[Compendium.pf2e.deities.QlDnoOwf0PppymTn]{Ханспур}, <em>@UUID[Compendium.pf2e.deities.DEKKbg6riAdL2ARf]{Хэй Фэн}</em>, @UUID[Compendium.pf2e.deities.bF77ydtptI54STl9]{Джайдз}, @UUID[Compendium.pf2e.deities.14GLsVobnZTEmJrs]{Келизандри}, @UUID[Compendium.pf2e.deities.AIcDyoff265z9285]{Кофусачи}, @UUID[Compendium.pf2e.deities.hWTTS0e7J9hJfsp3]{Матраваш}, @UUID[Compendium.pf2e.deities.RzTd9PmgnfHNlFVf]{Энг}, @UUID[Compendium.pf2e.deities.jL1qiVOZBKXETtVD]{Ноктикула}, @UUID[Compendium.pf2e.deities.Ij1KRM8ufkEjGnR3]{Рангинори}, @UUID[Compendium.pf2e.deities.GUmYLD7PGmE2TOx6]{Уаджит}, @UUID[Compendium.pf2e.deities.YXmeBdOZfWgUljW1]{Илиманча}, @UUID[Compendium.pf2e.deities.SUaGdvQXxSAQAw03]{Йог-Сотот}, @UUID[Compendium.pf2e.deities.44fcXgp3fnkoyb4R]{Rowdrosh}</p>\n<p><strong>Пантеоны:</strong> <em>@UUID[Compendium.pf2e.deities.6nq25AjImkT5GxDT]{Призменный луч}</em>, @UUID[Compendium.pf2e.deities.VG51y4FbTLdeGHZB]{Путь Небес}</p>\n<p><strong>Доменное заклинание:</strong> <em>@UUID[Compendium.pf2e.spells-srd.cOjlzWerBwbPWVkX]{Проворные ноги}</em>; <strong>Продвинутое доменное заклинание:</strong> <em>@UUID[Compendium.pf2e.spells-srd.LrhTFHUtSS9ahogL]{Проход путешественника}</em></p>\n<p>У вас есть власть над движением и путешествиями.</p>"
		},
		"Trickery Domain": {
			"name": "Хитрость",
			"description": "<p><strong>Божества:</strong> @UUID[Compendium.pf2e.deities.51kMMWaT6CqpGlGk]{Ачакек}, @UUID[Compendium.pf2e.deities.pCtJONJlhAugUXaG]{Ариман}, @UUID[Compendium.pf2e.deities.QRkcFciCOmFoxF1B]{Асмодей}, @UUID[Compendium.pf2e.deities.9WD0hbUT0IbnuTiM]{Вельзевул}, @UUID[Compendium.pf2e.deities.zRmAXj7FSlrMfDeA]{Бастет}, @UUID[Compendium.pf2e.deities.remyY1BwhEVmBwya]{Белиал}, @UUID[Compendium.pf2e.deities.wkDOeK7ENz1ra8IC]{Бесмара}, @UUID[Compendium.pf2e.deities.AlL9GtlTldbqNoVm]{Калистрия}, @UUID[Compendium.pf2e.deities.4GO4iT585ynLJnc8]{Чалдира}, @UUID[Compendium.pf2e.deities.dcbf3pBSNa2q1Kkq]{Дхалавей}, @UUID[Compendium.pf2e.deities.39z55kowQFOUH2v0]{Дроскар}, @UUID[Compendium.pf2e.deities.Dm8qlzpUj7g82QFv]{Эрикьюра}, @UUID[Compendium.pf2e.deities.fuPTR1laXO6EionS]{Бабушка Паучиха}, @UUID[Compendium.pf2e.deities.ItYptsfjV8XvfhOV]{Лахъя}, @UUID[Compendium.pf2e.deities.aipkJQxP4GBsTaGq]{Ламашту}, @UUID[Compendium.pf2e.deities.MbJ93Nw39h2cBYi5]{Лао Шу По}, @UUID[Compendium.pf2e.deities.Af4TSJjutVi9Vdwi]{Махатхалла}, @UUID[Compendium.pf2e.deities.Mv6uTJLh3VGEoGLH]{Ниви Ромбодазл}, @UUID[Compendium.pf2e.deities.GX6PF9ifR47Xyjg9]{Норгорбер}, @UUID[Compendium.pf2e.deities.iKgERiIc8rt3fatf]{Ньярлатотеп (Обитающий во Мраке)}, @UUID[Compendium.pf2e.deities.3nxIpMGeCvcBIVov]{Ньярлатотеп (Ползучий хаос)}, @UUID[Compendium.pf2e.deities.IZcdF1G8ZsnMotaM]{Пазузу}, @UUID[Compendium.pf2e.deities.zzhYFcShT9JoE2Mp]{Шакс}, @UUID[Compendium.pf2e.deities.BrbXGyzCeORNyJT5]{Сифкеш}, @UUID[Compendium.pf2e.deities.iJyhAFmHOLZBvWnJ]{Сивана}, @UUID[Compendium.pf2e.deities.BLNXYqvzmLgjMq2p]{Сунь Укун}, @UUID[Compendium.pf2e.deities.PFp4Sdp2TDDKD62l]{Тамир}, @UUID[Compendium.pf2e.deities.nuqIimigyt986WLE]{Король Фонарей}, @UUID[Compendium.pf2e.deities.83jKKHQPoqVylmrF]{Йечжин}, @UUID[Compendium.pf2e.deities.iEt6idGIEPXY2HzV]{Идаджиск}</p>\n<p><strong>Доменное заклинание:</strong> <em>@UUID[Compendium.pf2e.spells-srd.P9bqJsF3WkxGAJKJ]{Внезапное перемещение}</em>; <strong>Продвинутое доменное заклинание:</strong> <em>@UUID[Compendium.pf2e.spells-srd.ZhLYJlOZzUB1OKoe]{Двойник трикстера}</em></p>\n<p>Вы обманываете других и занимаетесь озорством.</p>"
		},
		"Truth Domain": {
			"name": "Правда",
			"description": "<p><strong>Божества:</strong> @UUID[Compendium.pf2e.deities.H1VrZ1QX0d2aPXT8]{Даммерих}, @UUID[Compendium.pf2e.deities.Dm8qlzpUj7g82QFv]{Эрикьюра}, @UUID[Compendium.pf2e.deities.xxUGdZYUj5IW7E0L]{Последователи судьбы}, @UUID[Compendium.pf2e.deities.WOiSJ4IWjaRsSgRO]{Герион}, @UUID[Compendium.pf2e.deities.tcvobm8O84qv0aO5]{Грухаста}, @UUID[Compendium.pf2e.deities.eErEiVmBqltYXFJ6]{Айомедэй}, @UUID[Compendium.pf2e.deities.qqqrbq4uCrelQvgH]{Ирори}, @UUID[Compendium.pf2e.deities.zhPhYge7VJbIlJvA]{Колс}, @UUID[Compendium.pf2e.deities.r5vooG7NfvA9prJK]{Курджесс}, @UUID[Compendium.pf2e.deities.ArmPZQrl0SFAKvrY]{Маат}, @UUID[Compendium.pf2e.deities.iMRXc519Uepf8yH3]{Магд}, @UUID[Compendium.pf2e.deities.Af4TSJjutVi9Vdwi]{Махатхалла}, @UUID[Compendium.pf2e.deities.W4QGkdn9V5ACRpkh]{Монада}, @UUID[Compendium.pf2e.deities.1nQVLOyWv5kC0bCU]{Равитра}, @UUID[Compendium.pf2e.deities.BNycwu3I21dTh4D9]{Саренрэй}, @UUID[Compendium.pf2e.deities.SCGdJmm7Wzle9jFP]{Зольс}</p>\n<p><strong>Пантеоны:</strong> @UUID[Compendium.pf2e.deities.WO9UsCY41oTtC2G0]{Столпы знаний}</p>\n<p><strong>Доменное заклинание:</strong> <em>@UUID[Compendium.pf2e.spells-srd.aF7RiG7c8GzSQLYt]{Слово правды}</em>; <strong>Продвинутое доменное заклинание:</strong> <em>@UUID[Compendium.pf2e.spells-srd.ZjbVgIIqMstmdkqP]{Проблеск истины}</em></p>\n<p>Вы обличаете ложь и открываете правду.</p>"
		},
		"Tyranny Domain": {
			"name": "Тирания",
			"description": "<p><strong>Божества:</strong> @UUID[Compendium.pf2e.deities.cHAbE86pto5bvIWo]{Ангажан}, @UUID[Compendium.pf2e.deities.QRkcFciCOmFoxF1B]{Асмодей}, @UUID[Compendium.pf2e.deities.oiEo6tDP3gICHtfZ]{Барбатос}, @UUID[Compendium.pf2e.deities.CzHjFLx4hpIEIoWt]{Диспатер}, @UUID[Compendium.pf2e.deities.39z55kowQFOUH2v0]{Дроскар}, @UUID[Compendium.pf2e.deities.RUzMtIQal0drPwQY]{Гогунта}, @UUID[Compendium.pf2e.deities.KWVdoAm3b01M8Lcp]{Мефистофель}, @UUID[Compendium.pf2e.deities.IZcdF1G8ZsnMotaM]{Пазузу}, @UUID[Compendium.pf2e.deities.ENzMYuzBZGIujSMx]{Древотес}, @UUID[Compendium.pf2e.deities.g1AVEGi8QibhS007]{Уокена}</p>\n<p><strong>Пантеоны:</strong> @UUID[Compendium.pf2e.deities.JndhOIHnQoMwnsw3]{Божественная десница}</p>\n<p><strong>Доменное заклинание:</strong> <em>@UUID[Compendium.pf2e.spells-srd.MmQiEc7aM9PDLO2J]{Подчиняющее касание}</em>; <strong>Продвинутое доменное заклинание:</strong> <em>@UUID[Compendium.pf2e.spells-srd.4DaHIgtMBTyxebY3]{Помыкающая плеть}</em></p>\n<p>Вы обладаете властью, чтобы править другими и порабощать других.</p>"
		},
		"Undeath Domain": {
			"name": "Нежить",
			"description": "<p><strong>Божества:</strong> @UUID[Compendium.pf2e.deities.6O4UGWcYERDEugzk]{Фумейоши}, @UUID[Compendium.pf2e.deities.V5PbbkZUP9N7kl6h]{Кабрири}, @UUID[Compendium.pf2e.deities.Af4TSJjutVi9Vdwi]{Махатхалла}, @UUID[Compendium.pf2e.deities.8Oy4qHylOOp79JxD]{Нимбалот}, @UUID[Compendium.pf2e.deities.22n3N47sqbqbDxbp]{Ургатоа}, @UUID[Compendium.pf2e.deities.8ZSywyo8YQPduo92]{Зура}, @UUID[Compendium.pf2e.deities.LLMTMgARSTlO7S9U]{Зиф}, @UUID[Compendium.pf2e.deities.b7H379HnCOv9UZtd]{Оркус}</p>\n<p><strong>Доменное заклинание:</strong> <em>@UUID[Compendium.pf2e.spells-srd.GYI4xloAgkm6tTrT]{Касание нежити}</em>; <strong>Продвинутое доменное заклинание:</strong> <em>@UUID[Compendium.pf2e.spells-srd.qzsQmpiQodHBBWYI]{Пагубное насыщение}</em></p>\n<p>Ваша магия тесно связана с нежитью.</p>"
		},
		"Vigil Domain": {
			"name": "Бдение",
			"description": "<p><strong>Божества:</strong> @UUID[Compendium.pf2e.deities.5YUNikBpJZ596MRD]{Анубис}, @UUID[Compendium.pf2e.deities.UUcAqU3KeJSMNxGF]{Барзак}, <em>@UUID[Compendium.pf2e.deities.OlVCyRgOaPJji4qt]{Чохар}</em>, @UUID[Compendium.pf2e.deities.H1VrZ1QX0d2aPXT8]{Даммерих}, @UUID[Compendium.pf2e.deities.oyp2E685VsQFKMXi]{Дрангвит}, <em>@UUID[Compendium.pf2e.deities.qqqrbq4uCrelQvgH]{Ирори}</em>, @UUID[Compendium.pf2e.deities.V5PbbkZUP9N7kl6h]{Кабрири}, <em>@UUID[Compendium.pf2e.deities.QZD0u1jxwz0kj8uI]{Фаразма}</em>, @UUID[Compendium.pf2e.deities.XYJupIPx0GW4s7eu]{Рагадан}, @UUID[Compendium.pf2e.deities.s9opv94lGDRKnw6W]{Шицуру}, @UUID[Compendium.pf2e.deities.HbuynQRCjGKtbhcC]{Потерянный Принц}, @UUID[Compendium.pf2e.deities.0R2BjVb7d9tYCIbk]{Тлехар}, @UUID[Compendium.pf2e.deities.8wOAwLMgB1HFLo9n]{Уинлэс}, @UUID[Compendium.pf2e.deities.30uY6NkhYmPI3Oii]{Bergelmir}</p>\n<p><strong>Пантеон:</strong> <em>@UUID[Compendium.pf2e.deities.LGOkWwN6AZhLiZpl]{Касание солнца}</em></p>\n<p><strong>Доменное заклинание:</strong> <em>@UUID[Compendium.pf2e.spells-srd.RztmhJrLLQWoGVdB]{Память объекта}</em>; <strong>Продвинутое доменное заклинание:</strong> <em>@UUID[Compendium.pf2e.spells-srd.nrW6lGV4xDMqLS3P]{Вспомнить ушедших}</em></p>\n<p>Вы следите за теми, кто давно ушел, и храните их тайны.</p>"
		},
		"Void Domain": {
			"name": "Пустота",
			"description": "<p><strong>Божества:</strong> @UUID[Compendium.pf2e.deities.sILda7I8Ak20Ioj9]{Азатот}, @UUID[Compendium.pf2e.deities.c9NFjRR8gr6CWpjl]{Черная бабочка}, <em>@UUID[Compendium.pf2e.deities.JgqH3BhuEuA4Zyqs]{Дезна}</em>, @UUID[Compendium.pf2e.deities.WloVxo6HXJdS4YTt]{Гротус}, @UUID[Compendium.pf2e.deities.WvoMr86bSSYxXKtI]{Хастур}, @UUID[Compendium.pf2e.deities.s81N9hxffmRuy3ik]{Керкамот}, @UUID[Compendium.pf2e.deities.W4QGkdn9V5ACRpkh]{Монада}, @UUID[Compendium.pf2e.deities.8Oy4qHylOOp79JxD]{Нимбалот}, <em>@UUID[Compendium.pf2e.deities.Bhxji0kxIbMKqdkw]{Ровагуг}</em>, @UUID[Compendium.pf2e.deities.SUaGdvQXxSAQAw03]{Йог-Сотот}, <em>@UUID[Compendium.pf2e.deities.ZfN7jkK6boU1FuiS]{Зон-Кутон}</em></p>\n<p><strong>Пантеоны:</strong> <em>@UUID[Compendium.pf2e.deities.oV5cnlPJQS8JfMIg]{Космический караван}</em>, <em>@UUID[Compendium.pf2e.deities.VG51y4FbTLdeGHZB]{Путь Небес}</em></p>\n<p><strong>Доменное заклинание:</strong> <em>@UUID[Compendium.pf2e.spells-srd.0cF9HvHzzWSbCFBP]{Внутренняя пустота}</em>; <strong>Продвинутое доменное заклинание:</strong> <em>@UUID[Compendium.pf2e.spells-srd.iMmexY6ZosLS4I5R]{Дверь за пределы}</em></p>\n<p>Вы черпаете силу из пустоты</p>"
		},
		"Water Domain": {
			"name": "Вода",
			"description": "<p><strong>Божества:</strong> @UUID[Compendium.pf2e.deities.wkDOeK7ENz1ra8IC]{Бесмара}, @UUID[Compendium.pf2e.deities.tcXrtRYCOr2EmgGB]{Харон}, @UUID[Compendium.pf2e.deities.AHX89nhuVhmg8k6w]{Дагон}, @UUID[Compendium.pf2e.deities.XHDlP7o1jNz9851v]{Диомазул}, @UUID[Compendium.pf2e.deities.WOiSJ4IWjaRsSgRO]{Герион}, @UUID[Compendium.pf2e.deities.RUzMtIQal0drPwQY]{Гогунта}, @UUID[Compendium.pf2e.deities.swwwP7eVmlNuWTb7]{Гозрей}, @UUID[Compendium.pf2e.deities.QlDnoOwf0PppymTn]{Ханспур}, @UUID[Compendium.pf2e.deities.DEKKbg6riAdL2ARf]{Хэй Фэн}, @UUID[Compendium.pf2e.deities.14GLsVobnZTEmJrs]{Келизандри}, @UUID[Compendium.pf2e.deities.r6SFB1PzKsagDXff]{Госпожа Наньбо}, @UUID[Compendium.pf2e.deities.SCMlQDcoU1QcF3AS]{Лисианасса}, @UUID[Compendium.pf2e.deities.hWTTS0e7J9hJfsp3]{Матраваш}, @UUID[Compendium.pf2e.deities.pm8H2DbtrHM01KNV]{Надири}, @UUID[Compendium.pf2e.deities.XYJupIPx0GW4s7eu]{Рагадан}, @UUID[Compendium.pf2e.deities.TvxsVRztDlGcWpcI]{Собек}, @UUID[Compendium.pf2e.deities.GUmYLD7PGmE2TOx6]{Уаджит}, @UUID[Compendium.pf2e.deities.YXmeBdOZfWgUljW1]{Илиманча}</p>\n<p><strong>Доменное заклинание:</strong> <em>@UUID[Compendium.pf2e.spells-srd.iAnpxrLaBU4V6Sej]{Приливная волна}</em>; <strong>Продвинутое доменное заклинание:</strong> <em>@UUID[Compendium.pf2e.spells-srd.K4LXpaBWrGy6jIER]{Ливень}</em></p>\n<p>Вы управляете водой и водоемами.</p>"
		},
		"Wealth Domain": {
			"name": "Богатство",
			"description": "<p><strong>Божества:</strong> @UUID[Compendium.pf2e.deities.d56paSkcwvll2OhR]{Абадар}, @UUID[Compendium.pf2e.deities.wkDOeK7ENz1ra8IC]{Бесмара}, @UUID[Compendium.pf2e.deities.mm1j6UbHqFCI8fwB]{Эрастил}, @UUID[Compendium.pf2e.deities.IXLzDSMGndFb5rGY]{Фалэйна}, @UUID[Compendium.pf2e.deities.QlDnoOwf0PppymTn]{Ханспур}, @UUID[Compendium.pf2e.deities.WvoMr86bSSYxXKtI]{Хастур}, @UUID[Compendium.pf2e.deities.AIcDyoff265z9285]{Кофусачи}, @UUID[Compendium.pf2e.deities.sNjPI1iaS8Z43YJf]{Маммон}, @UUID[Compendium.pf2e.deities.Mv6uTJLh3VGEoGLH]{Ниви Ромбодазл}, @UUID[Compendium.pf2e.deities.GX6PF9ifR47Xyjg9]{Норгорбер}, @UUID[Compendium.pf2e.deities.u3YfcJh1C4w6n75j]{Ромия}, @UUID[Compendium.pf2e.deities.1NxkZf6ndijKeufX]{Сайразул}, @UUID[Compendium.pf2e.deities.PFp4Sdp2TDDKD62l]{Тамир}</p>\n<p><strong>Пантеоны:</strong> @UUID[Compendium.pf2e.deities.6mgCX7lvKtaEYoa9]{Дварфийский пантеон}</p>\n<p><strong>Доменное заклинание:</strong> <em>@UUID[Compendium.pf2e.spells-srd.ZeftDoh0nFAXBAWY]{Кажущееся богатство}</em>; <strong>Продвинутое доменное заклинание:</strong> <em>@UUID[Compendium.pf2e.spells-srd.APTMURAW1N0Wpk4w]{Драгоценные металлы}</em></p>\n<p>У вас есть власть над богатством, торговлей и сокровищами.</p>"
		},
		"Wyrmkin Domain": {
			"name": "Вирм",
			"description": "<p><strong>Божества:</strong> @UUID[Compendium.pf2e.deities.bLI1JMpI2GXQT5AC]{Абраксас}, @UUID[Compendium.pf2e.deities.o8ayCv3LAHWlu0vQ]{Апсу}, @UUID[Compendium.pf2e.deities.uydTiyN5AzhBnQY8]{Ардад Лили}, @UUID[Compendium.pf2e.deities.Bzfc5mIUfMxOnQWu]{Дахак}, @UUID[Compendium.pf2e.deities.WOiSJ4IWjaRsSgRO]{Герион}, @UUID[Compendium.pf2e.deities.gsFaxWHbZmc1moY6]{Налинивати}, @UUID[Compendium.pf2e.deities.XYJupIPx0GW4s7eu]{Рагадан}, @UUID[Compendium.pf2e.deities.TvxsVRztDlGcWpcI]{Собек}, @UUID[Compendium.pf2e.deities.8roijlQ03l9rWFFe]{Зевгавизеб}, <em>@UUID[Compendium.pf2e.deities.kiTcZxmKxGPCwDpg]{Калькот}</em>, @UUID[Compendium.pf2e.deities.w4fDrwL8VIqJDPfR]{Увуко}</p>\n<p><strong>Пантеоны:</strong> @UUID[Compendium.pf2e.deities.yIfdsL1788boOOYk]{Хранители неба}</p>\n<p><strong>Доменное заклинание:</strong> <em>@UUID[Compendium.pf2e.spells-srd.S6Kkk15MWGqzC00a]{Драконий залп}</em>; <strong>Продвинутое доменное заклинание:</strong> <em>@UUID[Compendium.pf2e.spells-srd.FSu6ZKxr3xdS75wq]{Рев дракона}</em></p>\n<p>Вы черпаете силу драконов, линнормов и других могущественных рептилий.</p>"
		},
		"Zeal Domain": {
			"name": "Рвение",
			"description": "<p><strong>Божества:</strong> <em>@UUID[Compendium.pf2e.deities.cHAbE86pto5bvIWo]{Ангажан}</em>, @UUID[Compendium.pf2e.deities.51kMMWaT6CqpGlGk]{Ачакек}, @UUID[Compendium.pf2e.deities.Xb1N5YfxboJH26Jh]{Ангред}, @UUID[Compendium.pf2e.deities.aj4ChTlDcZCmrtJD]{Бафомет}, @UUID[Compendium.pf2e.deities.remyY1BwhEVmBwya]{Белиал}, @UUID[Compendium.pf2e.deities.EE8sNM4JraOPN669]{Кернунн}, @UUID[Compendium.pf2e.deities.4GO4iT585ynLJnc8]{Чалдира}, <em>@UUID[Compendium.pf2e.deities.OlVCyRgOaPJji4qt]{Чохар}</em>, @UUID[Compendium.pf2e.deities.AHX89nhuVhmg8k6w]{Дагон}, @UUID[Compendium.pf2e.deities.Bzfc5mIUfMxOnQWu]{Дахак}, @UUID[Compendium.pf2e.deities.XHDlP7o1jNz9851v]{Диомазул}, @UUID[Compendium.pf2e.deities.aVyxfqY9GBjTqQul]{Эйсет}, @UUID[Compendium.pf2e.deities.Zi1UARhode3FSFLr]{Генерал Сусуму}, @UUID[Compendium.pf2e.deities.88vRw2ZVPax4hhga]{Горум}, @UUID[Compendium.pf2e.deities.zlJGKpeLBwajP91o]{Гиронна}, @UUID[Compendium.pf2e.deities.eErEiVmBqltYXFJ6]{Айомедэй}, @UUID[Compendium.pf2e.deities.JcIf4uwKLxEWdplI]{Кощиччи}, @UUID[Compendium.pf2e.deities.r5vooG7NfvA9prJK]{Курджесс}, <em>@UUID[Compendium.pf2e.deities.ub0PJ5QkrdoGzzb2]{Лухар}</em>, @UUID[Compendium.pf2e.deities.fTJLgTfEMZreJ19r]{Милани}, @UUID[Compendium.pf2e.deities.GEBaoeiv5CB9h2Bn]{Рагатиэль}, @UUID[Compendium.pf2e.deities.Bhxji0kxIbMKqdkw]{Ровагуг}, @UUID[Compendium.pf2e.deities.DFxbPmQLOqcmbPTz]{Танагаар}, <em>@UUID[Compendium.pf2e.deities.0R2BjVb7d9tYCIbk]{Тлехар}</em>, @UUID[Compendium.pf2e.deities.y93whGnGZjFyw5A0]{Вильдейс}, @UUID[Compendium.pf2e.deities.GUmYLD7PGmE2TOx6]{Уаджит}, @UUID[Compendium.pf2e.deities.4bEPoujxhYdUyUOg]{Идерсий}, @UUID[Compendium.pf2e.deities.7L9KIqixgseSCY3X]{Имери}, @UUID[Compendium.pf2e.deities.CnDEoo6WruQCXo1o]{Любайко}, @UUID[Compendium.pf2e.deities.IK2AL3bL6htrrnnC]{Skode}, @UUID[Compendium.pf2e.deities.b7H379HnCOv9UZtd]{Оркус}</p>\n<p><strong>Пантеоны:</strong> @UUID[Compendium.pf2e.deities.JndhOIHnQoMwnsw3]{Божественная десница}, <em>@UUID[Compendium.pf2e.deities.KPrtgoIcgiBSKzS3]{Освобождающее пламя}</em>, <em>@UUID[Compendium.pf2e.deities.LGOkWwN6AZhLiZpl]{Касание солнца}</em></p>\n<p><strong>Доменное заклинание:</strong> <em>@UUID[Compendium.pf2e.spells-srd.W37iBXLsY2trJ1rS]{Усиление оружия}</em>; <strong>Продвинутое доменное заклинание:</strong> <em>@UUID[Compendium.pf2e.spells-srd.I8CPe9Pp7GABqOyB]{Рвение в бой}</em></p>\n<p>Ваш внутренний огонь увеличивает вашу боевую доблесть.</p>"
		}
	}
}