{
    "label": "Родословные",
    "mapping": {
        "name": {
            "path": "name",
            "converter": "itemNameConverter"
        },
        "description": "system.description.value",
        "items": {
            "path": "system.items",
            "converter": "carefulMerge"
        }
    },
    "entries": {
        "Goblin": {
            "name": "Гоблин",
            "description": "<p><em>Гоблинов не интересуют запутанные истории, за которые цепляются другие народы. Этот маленький народ живет настоящим, и они предпочитают небылицы фактам. Войны, произошедшие несколько десятилетий назад, с таким же успехом могли быть в далеком прошлом. Непонятые другими людьми, гоблины счастливы такими, какие они есть. Добродетели гоблинов состоят в том, чтобы быть участливым, творческим и честным. Они стремятся вести полноценную жизнь, а не беспокоиться о том, чем закончатся их путешествия. Рассказывать истории, а не придираться к фактам. Быть маленьким, но мечтать о большом.</em></p>\n<p>@UUID[Compendium.pf2e.journals.JournalEntry.45SK8rdbbxvEHfMn.JournalEntryPage.Gn0XGCWDb0N4zLE0]</p>"
        },
        "Halfling": {
            "name": "Полурослик",
            "description": "<p><em>Не претендуя на своё собственное место, полурослики имеют лишь несколько поселений крупнее деревень. Вместо этого они часто живут среди людей в стенах крупных городов, создавая небольшие сообщества рядом с более высокими народами. Многие полурослики ведут совершенно полноценную жизнь в тени своих более крупных соседей, в то время как другие предпочитают кочевать, путешествуя по миру и пользуясь возможностями по мере появления и попадая в приключения.</em></p>\n<p>@UUID[Compendium.pf2e.journals.JournalEntry.45SK8rdbbxvEHfMn.JournalEntryPage.voI7uPS9vsG74JIn]</p>",
            "items": {
                "3084v": {
                    "name": "Зоркие глаза"
                }
            }
        },
        "Human": {
            "name": "Человек",
            "description": "<p><em>Будучи непредсказуемым и разнообразным, как любой из народов Голариона, люди обладают исключительным стремлением и способностью переносить невзгоды и распространяться. Хотя многие цивилизации процветали до того, как человечество приобрело известность, люди построили одни из величайших и самых ужасных обществ на протяжении всей истории, и сегодня они являются самыми густонаселенными народами в царствах Внутреннего моря.</em></p>\n<p>@UUID[Compendium.pf2e.journals.JournalEntry.45SK8rdbbxvEHfMn.JournalEntryPage.7pU8yM7yPMw92SY3]</p>"
        },
        "Catfolk": {
            "name": "Коточеловек",
            "description": "<p><em>Любопытные и общительные странники, котолюди сочетают в себе черты животных из семейства кошачьих и гуманоидов как по внешнему виду, так и по темпераменту. Им нравится узнавать новое, собирать новые истории и безделушки, а также заботиться о том, чтобы их близкие были в безопасности и счастливы. Котолюди считают себя избранными хранителями природных мест в мире и часто безрассудно храбры, даже перед лицом превосходящей опасности.</em></p>\n<p>@UUID[Compendium.pf2e.journals.JournalEntry.45SK8rdbbxvEHfMn.JournalEntryPage.5S1Pq3GoEzLfBbH7]</p>",
            "items": {
                "iyksy": {
                    "name": "Приземление на лапы"
                }
            }
        },
        "Kobold": {
            "name": "Кобольд",
            "description": "<p><em>Каждый кобольд знает, что их хрупкое тело противоречит истинной могучей драконьей силе. Они изобретательные ремесленники и преданные союзники в своих логовищах, но те, кто вторгается на их территорию, узнают что они вдохновенные стрелки, особенно когда имеют поддержку драконьего чародея или истинного повелителя драконов. Однако эти рептилоидные оппортунисты счастливы сотрудничать с другими гуманоидами, когда это им выгодно, сочетая осторожность и хитрость, чтобы заработать состояния в большом мире.</em></p>\n<p>@UUID[Compendium.pf2e.journals.JournalEntry.45SK8rdbbxvEHfMn.JournalEntryPage.naQrTTE7CXu5lnNt]</p>",
            "items": {
                "xhq7h": {
                    "name": "Драконий образец"
                }
            }
        },
        "Ratfolk": {
            "name": "Крысолюд",
            "description": "<p><em>Исоки, как крысолюди сами себя называют — умные, легко приспосабливающаяся и привередливая родословная, которая радостно живет своими большими семьями в самых маленьких жилых помещениях.</em></p>\n<p>@UUID[Compendium.pf2e.journals.JournalEntry.45SK8rdbbxvEHfMn.JournalEntryPage.zoSkNev57C8OEDYL]</p>"
        },
        "Tengu": {
            "name": "Тэнгу",
            "description": "<p><em>Тэнгу — общительный и находчивый народ, который распространился далеко от своей прародины в Тянь Ся, собирая и комбинируя все инновации и традиции с которыми они сталкиваются, с теми, что имеют из своей долгой истории.</em></p>\n<p>@UUID[Compendium.pf2e.journals.JournalEntry.45SK8rdbbxvEHfMn.JournalEntryPage.YGIwmuVOJI7uNhGM]</p>",
            "items": {
                "vo9ge": {
                    "name": "Острый клюв"
                }
            }
        },
        "Automaton": {
            "name": "Автоматон",
            "description": "<p><em>Эти разумные конструкты вмещают настоящие души и они представляют собой то, что осталось от последней попытки умирающей империи достичь величия. Автоматоны сочетают в себе технологическую изобретательность и магическую силу, создавая смешанное существо, совершенно уникальное для Голариона.</em></p>\n<p>@UUID[Compendium.pf2e.journals.JournalEntry.45SK8rdbbxvEHfMn.JournalEntryPage.rsx8cRI20oEDgfQh]</p>",
            "items": {
                "l0mdk": {
                    "name": "Сконструрированное тело"
                },
                "l6cpr": {
                    "name": "Ядро автоматона"
                }
            }
        },
        "Skeleton": {
            "name": "Скелет",
            "description": "<p><em>Скелеты считаются одним из низших видов нежити. Как правило, это неразумные существа, лишенные многих возможностей, делающих другую нежить серьезной угрозой. Однако ожившие кости драконов, гигантов и других огромных чудовищ становятся опасными противниками. Могущественные живые существа могут сохранить часть своей силы и интеллекта, вернувшись в виде скелета. Некоторые некроманты превращают своих самых сильных врагов в скелетных слуг-нежить, если, конечно, смогут удержать над ними контроль.</em></p>\n<p>@UUID[Compendium.pf2e.journals.JournalEntry.45SK8rdbbxvEHfMn.JournalEntryPage.EcNSrvwIj22Jxkjz]</p>",
            "items": {
                "pADW6": {
                    "name": "Основные преимущества нежити"
                }
            }
        },
        "Dwarf": {
            "name": "Дварф(*)",
            "description": "<p><em>Дварфы имеют заслуженную репутацию стойкого и сурового народа, укрывшегося в цитаделях и городах, высеченных в скалах. В то время как некоторые видят в них хмурых и лишенных чувства юмора ремесленников, создающих вещи из камня и металла, дварфы и те, кто провел время среди них, понимают их необузданное рвение к своей работе и заботе о качестве, нежели чем о количестве. Чужаку они могут показаться недоверчивыми и обособленными, но для своих друзей и семьи они сердечные и заботливые, их залы наполнены звуками смеха и молотов, бьющих по наковальням.</em></p>\n<p>@UUID[Compendium.pf2e.journals.JournalEntry.45SK8rdbbxvEHfMn.JournalEntryPage.XzRv30zY3UXRbBho]</p>",
            "items": {
                "5vjeq": {
                    "name": "Клановый кинжал"
                }
            }
        },
        "Elf": {
            "name": "Эльф",
            "description": "<p><em>Как древний народ, эльфы видели большие перемены и имеют точку зрения, которая может появиться только от наблюдения за ходом истории. Покинув мир в древние времена, они вернулись на измененную землю, и всё ещё борются, чтобы восстановить свои родовые дома, в особенности от ужасных демонов наводнивших части их земель. Для некоторых эльфы это объект изумления, изящные и красивые, с обширными талантами и знаниями. Среди своих же, эльфы уделяют больше внимания личной свободе, чем жизни в соответствии с этими идеалами.</em></p>\n<p>@UUID[Compendium.pf2e.journals.JournalEntry.45SK8rdbbxvEHfMn.JournalEntryPage.3cfdiId1IoxLsF9V]</p>"
        },
        "Gnome": {
            "name": "Гном",
            "description": "<p><em>Давным-давно, ранние предки гномов переселились из Первого Мира, царства фей. Хоть и неясно, почему первые гномы забрели в Голарион, эта родословная проявляется в современных гномах в виде причудливых умозаключений, неординарности, навязчивых склонностях и том, что некоторые считают наивностью. Эти качества также отражаются в их физических чертах, таких как тонкие конечности, ярко окрашенные волосы и детские и чрезвычайно выразительные черты лица, которые еще больше отражают их потустороннее происхождение.</em></p>\n<p>@UUID[Compendium.pf2e.journals.JournalEntry.45SK8rdbbxvEHfMn.JournalEntryPage.qIu10HByKeRaPPvD]</p>"
        },
        "Leshy": {
            "name": "Леший",
            "description": "<p><em>Хранители и эмиссары окружающей среды, лешие — бессмертные духи природы, которым временно дарована физическая форма.</em></p>\n<p>@UUID[Compendium.pf2e.journals.JournalEntry.45SK8rdbbxvEHfMn.JournalEntryPage.SWkwNivrfzWZqas9]</p>",
            "items": {
                "32oz7": {
                    "name": "Питание растений"
                }
            }
        },
        "Orc": {
            "name": "Орк",
            "description": "<p><em>Орки закаляются в огне насилия и конфликтов, часто с самого момента своего рождения. Живя жизнью, которая часто жестоко обрывается, орки упиваются тем, что испытывают свои силы против достойных врагов, бросая вызов высокопоставленному члену своего сообщества за господство или совершая набег на соседнее поселение. Многие орки ищут славы, как только они начинают ходить и могут носить меч или дубину, укрощая диких зверей или охотясь на смертельных монстров.</em></p>\n<p>@UUID[Compendium.pf2e.journals.JournalEntry.45SK8rdbbxvEHfMn.JournalEntryPage.GCxhDyf1ZNlLiDKZ]</p>"
        },
        "Athamaru": {
            "name": "Атамару(*)",
            "description": "<p>Атамару — рыбоподобные гуманоиды, образующие сплоченные подводные сообщества. В небольших поселениях они занимаются выращиванием морских водорослей, дрессируют ездовых угрей, и создают сложные произведения кораллового искусства. Взаимодействие с другими водными народами у них натянутое, поскольку атамару подвергались жестокому обращению с их стороны. Тем не менее, они не теряют интереса к потенциальным контактам и новым перспективам.</p>"
        },
        "Awakened Animal": {
            "name": "Пробуждённое животное(*)",
            "description": "<p>Когда-то вы наслаждались простыми и безграничными удовольствиями природы с невинным, незамутнённым разумом. Вы жили мгновениями, не задаваясь вопросом, что будет дальше, и не размышляя о последствиях того, что произошло раньше. Вы были едины с дикой природой. Затем произошло событие, которое изменило всё. Вы выпили из светящегося озера, кто-то устроил магический розыгрыш, друид пытался возвысить ваш разум. Вас выдернули из настоящего мгновения дикой природы в страну мыслей.</p>",
            "items": {
                "9KYmO": {
                    "name": "Пробуждённый разум"
                },
                "TQ7e5": {
                    "name": "Пробуждённая форма"
                }
            }
        },
        "Centaur": {
            "name": "Кентавр(*)",
            "description": "<p>Кентавры — гордые кочевники, которые далеко путешествуют по своим исконным территориям, защищая свои земли от эксплуатации и вторжения. Они — прирожденные выживальщики, крепко связывающие себя узами семьи и общины и стойко переносящие опасность. Многие из них — искусные охотники, следопыты и воины, сражающиеся с помощью лука, стали и копыт. Храбрые и упрямые, они готовы бросить вызов даже самым свирепым врагам и самым большим армиям, чтобы защитить свои дома, родственников и свои владения.</p>"
        },
        "Merfolk": {
            "name": "Мерфолк(*)",
            "description": "<p>Мерфолки живут во всех океанах Голариона, бесконечные в своем разнообразии и внушающие благоговение своим величием. Они не без основания считают себя правителями моря. Среди тропических рифов Лихорадочного моря (Fever Sea) мерфолки строят храмы и дворцы из ярких кораллов. Под льдинами Сияющего моря (Shining Sea) мерфолки охотятся на тюленей и китов, объединяясь в небольшие обособленные кланы. В океане Эмбарал (Embaral Ocean) мерфолки населяют великий торговый город Алохмаб (Alohmab), построенный в раковине титанической улитки, которая ползет по дну океана.</p>",
            "items": {
                "1ZhYb": {
                    "name": "Гидратация [Мерфолк]"
                },
                "T9WbI": {
                    "name": "Водная грация"
                }
            }
        },
        "Minotaur": {
            "name": "Минотавр(*)",
            "description": "<p>Минотавры - мастера каменного зодчества, они обитают в сложных коридорах, как естественных, так и искусственных. Любознательные и стойкие, эти быкообразные гуманоиды всю жизнь совершенствуются в своем деле, которое иногда заводит их далеко от анклавов, где они были воспитаны. Минотавры родом с архипелага Иблидос (Iblydos), но распространились далеко по Голариону, образуя сплочённые сообщества, часто вблизи гор или под поверхностью земли. Хотя иногда их принимают за простых грубиянов, среди минотавров есть и ученые, и воины. Те, кто не придаёт значения их внешнему виду, обнаруживают в них склонность к строительству и навигации, а также к творческому решению проблем.</p>",
            "items": {
                "MZeAa": {
                    "name": "Рога"
                }
            }
        },
        "Surki": {
            "name": "Суркай(*)",
            "description": "<p>Суркаи — насекомоподобные существа, которые питаются скрытой магией окружающего мира. Будучи подземным народом, обитающим в Тёмных землях, суркаи редко появляются на поверхности, и между документированными встречами с ними большие перерывы. Это связано с жизненным циклом суркаев — за длительными периодами покоя следуют так называемые \"раскопки поколения\" (\"generation dig\"), когда они мигрируют на большие расстояния в ответ на происходящее под землёй. Исцеление Мировой Язвы (Worldwound) положило начало одному из крупнейших подобных раскопок за всю их историю: суркаи поднялись в пещеры и ходы Шрама Саркориса (Sarkoris Scar) и впервые за много лет вышли на поверхность. С момента их появления в укромных уголках Саркориса появилось несколько небольших поселений суркаев, ненасытно изучающих дикую природу, магию и других обитателей здешних мест, исследуя чужеродную им поверхность.</p>",
            "items": {
                "Ve2AG": {
                    "name": "Магофаг"
                }
            }
        },
        "Shoony": {
            "name": "Шуни",
            "description": "<p><em>Низкорослых гуманоидов, напоминающих коренастых двуногих собак, иногда ошибочно считают слабыми и замкнутыми пацифистами. Однако их упорство, невероятная трудовая этика и изобретательная дипломатия делают шуни далеко не беспомощными.</em></p>\n<p>@UUID[Compendium.pf2e.journals.JournalEntry.45SK8rdbbxvEHfMn.JournalEntryPage.j2hOTtHcdu2SA8Ha]</p>",
            "items": {
                "82kag": {
                    "name": "Тупая морда"
                }
            }
        },
        "Azarketi": {
            "name": "Азаркет",
            "description": "<p><em>Азаркеты — наследники разрушенной империи, тесно хранят свои гордые традиции, но всё ещё держатся у поверхности, чтобы взаимодействовать с остальным миром.</em></p>\n<p>@UUID[Compendium.pf2e.journals.JournalEntry.45SK8rdbbxvEHfMn.JournalEntryPage.SNhp04cirQnnBTbb]</p>",
            "items": {
                "mfgye": {
                    "name": "Гидратация"
                },
                "pvkub": {
                    "name": "Плавание"
                }
            }
        },
        "Android": {
            "name": "Андроид",
            "description": "<p><em>Являясь технологическими чудесами из другого мира, андроиды имеют синтетические тела и живые души. Благодаря их двойственной природе, они сообразительны и спокойны под давлением, но безмятежными в тишине и одиночестве.</em></p>\n<p>@UUID[Compendium.pf2e.journals.JournalEntry.45SK8rdbbxvEHfMn.JournalEntryPage.dyusFHHyaQOaQhZ0]</p>",
            "items": {
                "fvpio": {
                    "name": "Невоспринимающий эмоции"
                },
                "ouwoo": {
                    "name": "Созданный"
                }
            }
        },
        "Fetchling": {
            "name": "Фечлин",
            "description": "<p><em>Некогда люди, а теперь уже нечто обособленное, фечлины демонстрируют древнее влияние Теневого плана монохромным цветом лица, светящимися глаза и отбрасыванием сверхъестественных теней.</em></p>\n<p>@UUID[Compendium.pf2e.journals.JournalEntry.45SK8rdbbxvEHfMn.JournalEntryPage.RlMgeku1FNJjF7YR]</p>"
        },
        "Fleshwarp": {
            "name": "Флэшворп",
            "description": "<p><em>Флэшворпы — люди, чьи формы были созданы или радикально преобразованы с помощью магии, алхимии или неестественных энергий. Их неортодоксальная внешность может мешать им найти себе место в мире.</em></p>\n<p>@UUID[Compendium.pf2e.journals.JournalEntry.45SK8rdbbxvEHfMn.JournalEntryPage.vTB1bTYVE4onyyy1]</p>",
            "items": {
                "31xm9": {
                    "name": "Необычная анатомия"
                }
            }
        },
        "Kitsune": {
            "name": "Кицунэ",
            "description": "<p><em>Кицунэ — харизматичный и остроумный народ, имеющий связь с духовным, что дает им много магических умений, и главным образом силу превращаться в другие формы. Независимо от того, проходят ли они незамеченными среди других народов или высоко держат хвосты, кицунэ умело наблюдают за окружающими их обществами.</em></p>\n<p>@UUID[Compendium.pf2e.journals.JournalEntry.45SK8rdbbxvEHfMn.JournalEntryPage.26YL1jOPQQS6k7A9]</p>",
            "items": {
                "7ytru": {
                    "name": "Изменение формы"
                }
            }
        },
        "Sprite": {
            "name": "Спрайт",
            "description": "<p><em>Спрайты — крохотные, причудливые и жизнерадостные существа из царства фей, известного как Первый мир. Они любят устраивать розыгрыши, исследовать новое и охватывать все, что связано с магией.</em></p>\n<p>@UUID[Compendium.pf2e.journals.JournalEntry.45SK8rdbbxvEHfMn.JournalEntryPage.rvbMGyBr6y5K7HDP]</p>",
            "items": {
                "uu6ze": {
                    "name": "Магические удары"
                }
            }
        },
        "Strix": {
            "name": "Стрикс",
            "description": "<p><em>Известные на своем языке как итарии, стриксы — птичьи гуманоиды живущие уединенно, преданные своей родине и своим племенам. Они защищают свои драгоценные сообщества широким размахом крыльев и острыми когтями.</em></p>\n<p>@UUID[Compendium.pf2e.journals.JournalEntry.45SK8rdbbxvEHfMn.JournalEntryPage.N8aShsDuf3ur0vZ2]</p>",
            "items": {
                "64eou": {
                    "name": "Крылья"
                }
            }
        },
        "Hobgoblin": {
            "name": "Хобгоблин",
            "description": "<p><em>Выше и сильнее своих гоблинских сородичей, хобгоблины по силе и размеру не уступают людям, и обладают широкими плечами и длинными мощными руками.</em></p>\n<p>@UUID[Compendium.pf2e.journals.JournalEntry.45SK8rdbbxvEHfMn.JournalEntryPage.DuWzeY4zugKFFthl]</p>"
        },
        "Lizardfolk": {
            "name": "Людоящер",
            "description": "<p><em>Людоящеры — непревзойденные выживальщики, наследники империй даже эльфами считающиеся древними.</em></p>\n<p>@UUID[Compendium.pf2e.journals.JournalEntry.45SK8rdbbxvEHfMn.JournalEntryPage.cbLJs37Nc8FveriK]</p>",
            "items": {
                "ry9ai": {
                    "name": "Водная адаптация"
                },
                "xkzsg": {
                    "name": "Когти"
                }
            }
        },
        "Ghoran": {
            "name": "Горан",
            "description": "<p>Эти разумные люди-растения, созданные давно умершим друидом, обладают своего рода бессмертием благодаря своим семенам — до тех пор, пока они не будут уничтожены внешними событиями, отличными от разрушительного действия времени.</p>\n<p>@UUID[Compendium.pf2e.journals.JournalEntry.45SK8rdbbxvEHfMn.JournalEntryPage.kRjkrWAqQNXj3LLP]</p>",
            "items": {
                "Jpors": {
                    "name": "Фотосинтез"
                }
            }
        },
        "Kashrishi": {
            "name": "Кашриши",
            "description": "<p>Кашриши живут в отдаленных регионах мира. У этих спокойных существ крепкое, прочное телосложение и характерные кристаллические рога. Их врожденные экстрасенсорные способности делают их прирожденными эмпатами, но также иногда обременяют их непрекращающимися мыслями о своих соседях.</p>\n<p>@UUID[Compendium.pf2e.journals.JournalEntry.45SK8rdbbxvEHfMn.JournalEntryPage.IJOH7nk0w1IybAhp]</p>",
            "items": {
                "iaCUe": {
                    "name": "Чувство эмпатии"
                },
                "wceqv": {
                    "name": "Светящийся рог"
                }
            }
        },
        "Nagaji": {
            "name": "Нагаджи",
            "description": "<p><em>Обладая гуманоидными телами и змеевидными головами, нагаджи являются глашатаями, спутниками и слугами могущественных наг. Они с глубоким почтением относятся к святым местам и духовным истинам, что многие другие считают столь же пугающим, как и внешность нагаджи.</em></p>\n<p>@UUID[Compendium.pf2e.journals.JournalEntry.45SK8rdbbxvEHfMn.JournalEntryPage.TlTIwW61zK0dk95v]</p>",
            "items": {
                "O6GUQ": {
                    "name": "Клыки [Нагаджи]"
                }
            }
        },
        "Vanara": {
            "name": "Ванар",
            "description": "<p><em>Ванары — любознательные и озорные обезьяноподобные гуманоиды с короткой мягкой шерстью, выразительными глазами и длинными, цепкими хвостами. Их ноги, похожие на руки, и проворное телосложение хорошо помогают им в джунглях, где и живет большинство ванаров.</em></p>\n<p>@UUID[Compendium.pf2e.journals.JournalEntry.45SK8rdbbxvEHfMn.JournalEntryPage.40koksC576nYV2Tf]</p>",
            "items": {
                "6bSm3": {
                    "name": "Цепкий хвост"
                }
            }
        },
        "Vishkanya": {
            "name": "Вишканья",
            "description": "<p><em>Вишканьи — гуманоиды относящиеся к змеям, в крови и слюне которых содержится сильный яд. Во многом непонятые из-за старых историй об их токсичности и природном изяществе, вишканьи стараются развиться в нечто большее, чем то, как их изображают истории.</em></p>\n<p>@UUID[Compendium.pf2e.journals.JournalEntry.45SK8rdbbxvEHfMn.JournalEntryPage.1lCAkGgIYYkczZ28]</p>",
            "items": {
                "0wY9n": {
                    "name": "Врожденный яд"
                }
            }
        },
        "Poppet": {
            "name": "Кукла",
            "description": "<p><em>Куклы — это маленькие, простые конструкты, которые обычно помогают своим хозяевам выполнять простые задачи. Порой они обретают разум, независимость и искру жизни. Поднявшись над простыми помощниками или игрушками, эти куклы могут самостоятельно определять свои судьбы.</em></p>\n<p>@UUID[Compendium.pf2e.journals.JournalEntry.45SK8rdbbxvEHfMn.JournalEntryPage.Ck8L9livQph1GFal]</p>",
            "items": {
                "3fzmc": {
                    "name": "Созданный [Кукла]"
                },
                "giqow": {
                    "name": "Легковоспламеняющийся"
                }
            }
        },
        "Anadi": {
            "name": "Анади",
            "description": "<p><em>Народ анади это замкнутые, разумные пауки, родом из джунглей южного Гарунда. Хотя они во многом действуют как прирожденные оборотни, их двойные формы на самом деле являются результатом тщательно разработанной магии.</em></p>\n<p>@UUID[Compendium.pf2e.journals.JournalEntry.45SK8rdbbxvEHfMn.JournalEntryPage.9dpHTBpL3j8ZpqTS]</p>",
            "items": {
                "cfaem": {
                    "name": "Изменение формы [Анади]"
                },
                "ctbld": {
                    "name": "Клыки"
                }
            }
        },
        "Conrasu": {
            "name": "Конрас",
            "description": "<p><em>Конрасы это осколки космической силы получившей сознание, которые создают замысловатые экзоскелеты для взаимодействия с миром смертных. Являясь неотъемлемой частью основополагающих процессов Вселенной и будучи странно обособленными, конрасы обращаются к эонам, чтобы понять свое существование.</em></p>\n<p>@UUID[Compendium.pf2e.journals.JournalEntry.45SK8rdbbxvEHfMn.JournalEntryPage.ufWdokSN5W3Einus]</p>",
            "items": {
                "tdik1": {
                    "name": "Исцеление солнечным светом"
                }
            }
        },
        "Gnoll": {
            "name": "Гнолл",
            "description": "<p><em>Мощно сложенные гуманоиды, похожие на гиен, гноллы — хитрые воины и охотники. Их устрашающий вид и эффективные тактики принесли им дурную репутацию.</em></p>\n<p>@UUID[Compendium.pf2e.journals.JournalEntry.45SK8rdbbxvEHfMn.JournalEntryPage.xBV8oGvecw7abZxc]</p>",
            "items": {
                "r9df5": {
                    "name": "Укус"
                }
            }
        },
        "Goloma": {
            "name": "Голома",
            "description": "<p><em>Голомы боятся большинства других людей и сознательно используют свою необычную биологию, чтобы отпугивать тех, кого они считают опасными хищниками. Редко замечаемые и плохо понятые, образ многоглазых и деревянноликих голом внушает ужас большинству тех, с кем они встречаются.</em></p>\n<p>@UUID[Compendium.pf2e.journals.JournalEntry.45SK8rdbbxvEHfMn.JournalEntryPage.jKglnHBFvzI80tIe]</p>",
            "items": {
                "2lk67": {
                    "name": "Глаза на затылке"
                }
            }
        },
        "Grippli": {
            "name": "Гриппли",
            "description": "<p><em>Гриппли — застенчивый и осторожный народ, который обычно старается не втягиваться в сложные и опасные дела других. Несмотря на свое мировоззрение и небольшой рост, когда того требует ситуация, гриппли часто предпринимают смелые и благородные действия.</em></p>\n<p>@UUID[Compendium.pf2e.journals.JournalEntry.45SK8rdbbxvEHfMn.JournalEntryPage.FhIJtKcINEe7fipX]</p>"
        },
        "Shisk": {
            "name": "Шиск",
            "description": "<p><em>Шиски — скрытные горные жители, гуманоиды с костяными перьями, которые прячутся под землей в темных туннелях и пещерах. Их увлеченность коллекционированием и сохранением эзотерических знаний — одна из немногих вещей, которые могут убедить их исследовать внешний мир.</em></p>\n<p>@UUID[Compendium.pf2e.journals.JournalEntry.45SK8rdbbxvEHfMn.JournalEntryPage.qsbc1ZLCWzfl1sfZ]</p>"
        }
    }
}