{
    "pf2e-dragruler": {
        "settings": {
            "auto": {
                "name": "Автоматическое переключение движения",
                "hint": "Если включено, положительные значения высоты будут автоматически использовать Скорость полета, отрицательные значения высоты будут использовать Скорость рытья, а токены в воде или водной местности будут использовать Скорость плавания. Если у участника нет этой скорости, вместо этого он будет использовать наземную Скорость."
            },
            "scene": {
                "name": "Автоматизация окружающей среды декораций",
                "hint": "Требуется Enhanced Terrain Layer. Если включено, участники в небесных декорациях будут автоматически использовать Скорость полета, а те, кто находится в водной местности, будут использовать Скорость плавания, если у участника нет этой скорости, он будет использовать наземную Скорость."
            },
            "offTurnMovement": {
                "name": "Игнорировать движение вне хода",
                "hint": "Требуется включить историю движений. Автоматически сбрасывает историю движений в начале хода каждого участника в бою, что означает, что любое движение выполненное вне хода в качестве реакции, не повлияет на историю движений в ваш ход."
            },
            "partialMovements": {
                "name": "Частичные движения",
                "hint": "Относитесь к каждому выполненному перетаскиванию, как к действию, и при необходимости уменьшайте допустимое расстояние движения."
            }
        },
        "canvas": {
            "Aquatic": "Водный",
            "Arctic": "Арктика",
            "Coast": "Побережье",
            "Desert": "Пустыня",
            "Forest": "Лес",
            "Hills": "Холмы",
            "Mountain": "Горы",
            "Plains": "Равнины",
            "Sky": "Небо",
            "Swamp": "Болото",
            "Underground": "Подземелье",
            "Urban": "Городской",
            "Current": "Поток",
            "Crowd": "Толпа",
            "Furniture": "Мебель",
            "Ice": "Лед",
            "Incline": "Наклон",
            "Magical": "Магический",
            "Plants": "Растения",
            "Rubble": "Щебень",
            "Water": "Вода",
            "Wind": "Ветер"
        }
    }
}