{
  "pf2e-dorako-ui": {
    "text": {
      "secret": "Тайный бросок",
      "self-roll": "Бросок для себя",
      "gm-only": "Только Мастер",
      "whisper": "Шепот",
      "from": "От",
      "to": "к",
      "send-to-chat": "Отправить",
      "default": "По умолчанию",
      "dark": "Темный",
      "light": "Светлый",
      "disabled": "Отключено",
      "large-chatlog-warning": "Из-за большого размера журнала чата некоторые настройки будут применены при следующей перезагрузке.",
      "maybe-reload": "Некоторые изменения могут потребовать перезагрузки.",
      "prefer-light": "Предпочтительно светлый",
      "prefer-dark": "Предпочтительно темный",
      "bg3": "Baldur's Gate 3",
      "bg3-brown": "Baldur's Gate 3 (Коричневый)",
      "bg3-blue": "Baldur's Gate 3 (Синий)",
      "foundry2": "Foundry 2",
      "discord": "Discord",
      "discord-light": "Discord (Светлый)",
      "discord-dark": "Discord (Темный)",
      "glass": "Стекло",
      "crb": "Core Rulebook",
      "crb-light": "Core Rulebook (Светлый)",
      "crb-dark": "Core Rulebook (Темный)",
      "no-theme": "Без темы",
      "opaque": "Непрозрачный",
      "alliance": "Оппозиция темный",
      "gm-vs-players": "Мастер темный",
      "custom": "⚠️ Сделай сам 👷",
      "custom-light": "⚠️ Сделай сам (Светлый) 👷",
      "custom-dark": "⚠️ Сделай сам (Темный) 👷",
      "colors": {
        "red": "Красный",
        "blue": "Синий",
        "green": "Зеленый",
        "purple": "Фиолетовый",
        "black": "Черный",
        "player": "Цвет игрока"
      }
    },
    "settings": {
      "reset-changes": "Сбросить изменения",
      "theme": {
        "name": "Настройки темы",
        "label": "Настройки параметров темы",
        "hint": "Изменение настроек темы для различных приложений и элементов пользовательского интерфейса",
        "window-app-theme": {
          "name": "Тема листов",
          "hint": "Влияет на подобные окнам приложения"
        },
        "app-theme": {
          "name": "Тема приложения",
          "hint": "Влияет на элементы пользовательского интерфейса, такие как элементы управления и навигации, а также на модули"
        },
        "chat-message-standard-theme": {
          "name": "Тема сообщений чата (стандарт)",
          "hint": "Применяется к сообщениям от ораторов, не принадлежащих `оппозиции`"
        },
        "chat-message-opposition-theme": {
          "name": "Тема сообщений чата (оппозиция)",
          "hint": "Применяется к сообщениям от ораторов, принадлежащих `оппозиции`"
        },
        "chat-message-header-style": {
          "name": "Тема заголовков чата",
          "hint": "Применяется только к темам CRB"
        },
        "border-radius": {
          "name": "Округлость",
          "hint": "(по умолчанию: 3px) Изменяет степень округлости многих элементов пользовательского интерфейса"
        },
        "sheet-theme-color": {
          "name": "Цвет темы листа",
          "hint": "Применяется к листам игровых персонажей и транспорта"
        }
      },
      "misc": {
        "name": "Разные настройки",
        "label": "Настроить прочие параметры",
        "hint": "Настроить параметры, связанные с другими функциями пользовательского интерфейса Dorako UI",
        "enable-debug-mode": {
          "name": "Включить режим отладки?",
          "hint": "Добавляет кнопки для быстрой смены темы листа"
        }
      },
      "customization": {
        "name": "Дополнительная настройка",
        "label": "",
        "hint": "Вносите персонализированные изменения с помощью пользовательского CSS, или откажитесь от определенного стиля пользовательского интерфейса Dorako UI",

        "excluded-applications": {
          "name": "Исключенные приложения",
          "hint": "Поищите в журналах название приложения или спросите в Discord"
        },
        "custom-css": {
          "name": "Пользовательский CSS",
          "hint": "Напишите CSS во внешнем редакторе и вставьте сюда"
        }
      },
      "external-module": {
        "name": "Настройки других модулей",
        "label": "",
        "hint": "Корректировки того, как пользовательский интерфейс Dorako влияет на другие модули",

        "colorize-idle-hud": {
          "name": "Раскрасить PF2e Interactive Token Tooltip?",
          "hint": "Применяет цветную тему к значкам основного всплывающего окна"
        }
      }
    }
  }
}