{
  "pf2e-alignment-damage": {
    "settings": {
      "alignmentConfig": {
        "name": "Восприимчивость к урону мировоззрением",
        "hint": "Определяет на какие типы существ может повлиять урон мировоззрением. \"Несовпадающие\" относится к существам, у котороых отсутствует соответствующий признак мировоззрения, например нейтральное существо получит урон добром, а существо с добрым мировоззрением - нет.",
        "default": "Правила по умолчанию",
        "all": "Все существа",
        "none": "Никакие существа",
        "matchingResists": "Все существа, кроме соответствующего мировоззрения, имеют сопротивление, основанное от уровня",
        "othersResist": "Все существа, кроме не-противоположного мировоззрения, имеют сопротивление, основанное на уровне",
        "nonMatching": "Несовпадающие существа",
        "applySpirit": "Применяйте весь урон мировоззрения, как духовный урон",
        "replace": "Заменить на духовный урон при броске"
      },
      "bleedConfig": {
        "name": "Подверженность кровотечению",
        "hint": "Определяет, какие типы существ могут быть затронуты уроном кровотечением.",
        "default": "Правила по умолчанию",
        "all": "Все существа",
        "nonConstructs": "Все существа кроме конструктов",
        "nonUndead": "Все существа кроме нежити"
      },
      "vitalityConfig": {
        "name": "Восприимчивость к жизненному урону",
        "hint": "Определяет каким типам существ может быть нанесен жизненный урон.",
        "default": "Правила по умолчанию",
        "all": "Все существа",
        "nonConstructs": "Все существа кроме конструктов"
      },
      "voidConfig": {
        "name": "Восприимчивость к урону пустотой",
        "hint": "Определяет каким типам существ может быть нанесен урон пустотой.",
        "default": "Правила по умолчанию",
        "all": "Все существа",
        "nonConstructs": "Все существа кроме конструктов"
      },
      "precisionConfig": {
        "name": "Иммунитет к точному урону",
        "hint": "Определяет поведение иммунитета к точному урону. Для замены на физическое сопротивление используется низкое значение сопротивления основанного на уровне.",
        "default": "Правила по умолчанию",
        "replace": "Заменить физическим сопротивлением",
        "remove": "Полностью удалить иммунитет к точности"
      }
    }
  }
}