{
	"label": "Эффекты",
	"entries": {
		"Effect: Apparition Attunement": {
			"name": "Эффект: Настройка воплощений",
			"description": ""
		},
		"Effect: Apparition's Enhancement": {
			"name": "Эффект: Усиление воплощения",
			"description": "<p>Помогающее воплощение протягивает руку или другую конечность к вашей магии, когда вы сотворяете заклинание, а затем использует ее, чтобы наделить одно ваше оружие или одну вашу безоружную атаку дополнительной магической силой. До конца вашего хода оружие или безоружная атака наносит дополнительные 1d6 духовного урона и приобретает признак `сакральный`, если ее еще не было.</p>"
		},
		"Effect: Apparition's Possession": {
			"name": "Эффект: Одержимость воплощением",
			"description": ""
		},
		"Effect: Channeled Protection": {
			"name": "Эффект: Направленная защита",
			"description": "<p>Вы получаете бонус состояния +1 к КБ и спасброскам Рефлекса.</p>"
		},
		"Effect: Fly on Shadowed Wings": {
			"name": "Эффект: Полет на теневых крыльях",
			"description": "<p>Вы приводите энергию своей физической формы в соответствии с энергией одного из своих бестелесных духовных спутников, соединяясь с его сущностью и становясь легче воздуха. Выберите одно из настроенных воплощений; на 10 минут вы получаете Скорость полета, равную вашей наземной Скорости, но выбранное вами воплощение на это время рассеивается, автоматически вновь соединяясь с вами через 10 минут.</p>"
		},
		"Effect: Palisade Bangles": {
			"name": "Эффект: Браслеты частокола",
			"description": "<p>Вы получаете бонус обстоятельства +1 к КБ. Этот бонус увеличивается до +2, если поднят баклер, или до +3 если поднят щит. </p>"
		},
		"Effect: Skybearer's Belt": {
			"name": "Эффект: Пояс несущего небо",
			"description": "<p>Вы можете нести на 4 больше Массы, чем обычно, прежде чем стать перегруженными, и на 8 больше максимальной Массы.</p>"
		},
		"Effect: Thousand-League Sandals": {
			"name": "Эффект: Сандалии тысячи лиг",
			"description": "<p>Вы получаете бонус состояния +10 футов к Скорости.</p>"
		},
		"Effect: Victor's Wreath": {
			"name": "Эффект: Венок победителя",
			"description": "<p>Вы получаете бонус состояния +1 к броскам атаки.</p>"
		},
		"Stance: Channeler's Stance": {
			"name": "Стойка: Проводника",
			"description": "<p>Находясь вэ той стойке, каждый раз, когда вы @UUID[Compendium.pf2e.actionspf2e.Item.aBQ8ajvEBByv45yz]{Сотворяете} или @UUID[Compendium.pf2e.actionspf2e.Item.3f5DMFu8fPiqHpRg]{Поддерживаете} заклинание воплощения или заклинание сосуда, наносящее энергетический урон, вы получаете бонус состояния к урону заклинания, равный рангу заклинания.</p>"
		}
	}
}